%YAML 1.1
%TAG !u! tag:unity3d.com,2011:
--- !u!78 &1
TagManager:
  serializedVersion: 2
  tags:
  - Wall
  - Projectile
  - Enemy
  - DoorDetector
  - Bomb
  - Battery
  - KeyCard
  - NarratorTrigger
  layers:
  - Default
  - TransparentFX
  - Ignore Raycast
  - 
  - Water
  - UI
  - 
  - 
  - Characters
  - Background
  - WorldObjects
  - 
  - 
  - 
  - 
  - 
  - 
  - 
  - 
  - 
  - 
  - 
  - 
  - 
  - 
  - 
  - 
  - 
  - 
  - 
  - 
  - 
  m_SortingLayers:
  - name: Default
    uniqueID: 0
    locked: 0
  - name: Ground
    uniqueID: 1724613869
    locked: 0
  - name: Characters
    uniqueID: 3951091481
    locked: 0
  - name: WorldObjects
    uniqueID: 1355625711
    locked: 0
  - name: Visible
    uniqueID: 103174371
    locked: 0
  - name: FogOfWar4
    uniqueID: 3639117061
    locked: 0
  - name: FogOfWar3
    uniqueID: 446018095
    locked: 0
  - name: FogOfWar2
    uniqueID: 4256173659
    locked: 0
  - name: FogOfWar
    uniqueID: 531353297
    locked: 0
