﻿# Tiled2Unity generated file. Do not modify by hand.
# Wavefront file for 'Map_mesh_0002.obj'

# Vertices (Count = 2536)
v -43 -44 -0.88
v -44 -44 -0.88
v -44 -43 -0.88
v -43 -43 -0.88
v -42 -44 -0.88
v -43 -44 -0.88
v -43 -43 -0.88
v -42 -43 -0.88
v -41 -44 -0.88
v -42 -44 -0.88
v -42 -43 -0.88
v -41 -43 -0.88
v -40 -44 -0.88
v -41 -44 -0.88
v -41 -43 -0.88
v -40 -43 -0.88
v -39 -44 -0.88
v -40 -44 -0.88
v -40 -43 -0.88
v -39 -43 -0.88
v -38 -44 -0.88
v -39 -44 -0.88
v -39 -43 -0.88
v -38 -43 -0.88
v -37 -44 -0.88
v -38 -44 -0.88
v -38 -43 -0.88
v -37 -43 -0.88
v -36 -44 -0.88
v -37 -44 -0.88
v -37 -43 -0.88
v -36 -43 -0.88
v -35 -44 -0.88
v -36 -44 -0.88
v -36 -43 -0.88
v -35 -43 -0.88
v -34 -44 -0.88
v -35 -44 -0.88
v -35 -43 -0.88
v -34 -43 -0.88
v -33 -44 -0.88
v -34 -44 -0.88
v -34 -43 -0.88
v -33 -43 -0.88
v -32 -44 -0.88
v -33 -44 -0.88
v -33 -43 -0.88
v -32 -43 -0.88
v -31 -44 -0.88
v -32 -44 -0.88
v -32 -43 -0.88
v -31 -43 -0.88
v -30 -44 -0.88
v -31 -44 -0.88
v -31 -43 -0.88
v -30 -43 -0.88
v -29 -44 -0.88
v -30 -44 -0.88
v -30 -43 -0.88
v -29 -43 -0.88
v -28 -44 -0.88
v -29 -44 -0.88
v -29 -43 -0.88
v -28 -43 -0.88
v -27 -44 -0.88
v -28 -44 -0.88
v -28 -43 -0.88
v -27 -43 -0.88
v -26 -44 -0.88
v -27 -44 -0.88
v -27 -43 -0.88
v -26 -43 -0.88
v -25 -44 -0.88
v -26 -44 -0.88
v -26 -43 -0.88
v -25 -43 -0.88
v -24 -44 -0.88
v -25 -44 -0.88
v -25 -43 -0.88
v -24 -43 -0.88
v -23 -44 -0.88
v -24 -44 -0.88
v -24 -43 -0.88
v -23 -43 -0.88
v -22 -44 -0.88
v -23 -44 -0.88
v -23 -43 -0.88
v -22 -43 -0.88
v -21 -44 -0.88
v -22 -44 -0.88
v -22 -43 -0.88
v -21 -43 -0.88
v -20 -44 -0.88
v -21 -44 -0.88
v -21 -43 -0.88
v -20 -43 -0.88
v -19 -44 -0.88
v -20 -44 -0.88
v -20 -43 -0.88
v -19 -43 -0.88
v -18 -44 -0.88
v -19 -44 -0.88
v -19 -43 -0.88
v -18 -43 -0.88
v -17 -44 -0.88
v -18 -44 -0.88
v -18 -43 -0.88
v -17 -43 -0.88
v -16 -44 -0.88
v -17 -44 -0.88
v -17 -43 -0.88
v -16 -43 -0.88
v -15 -44 -0.88
v -16 -44 -0.88
v -16 -43 -0.88
v -15 -43 -0.88
v -14 -44 -0.88
v -15 -44 -0.88
v -15 -43 -0.88
v -14 -43 -0.88
v -13 -44 -0.88
v -14 -44 -0.88
v -14 -43 -0.88
v -13 -43 -0.88
v -12 -44 -0.88
v -13 -44 -0.88
v -13 -43 -0.88
v -12 -43 -0.88
v -11 -44 -0.88
v -12 -44 -0.88
v -12 -43 -0.88
v -11 -43 -0.88
v -10 -44 -0.88
v -11 -44 -0.88
v -11 -43 -0.88
v -10 -43 -0.88
v -9 -44 -0.88
v -10 -44 -0.88
v -10 -43 -0.88
v -9 -43 -0.88
v -8 -44 -0.88
v -9 -44 -0.88
v -9 -43 -0.88
v -8 -43 -0.88
v -7 -44 -0.88
v -8 -44 -0.88
v -8 -43 -0.88
v -7 -43 -0.88
v -43 -43 -0.86
v -44 -43 -0.86
v -44 -42 -0.86
v -43 -42 -0.86
v -42 -43 -0.86
v -43 -43 -0.86
v -43 -42 -0.86
v -42 -42 -0.86
v -41 -43 -0.86
v -42 -43 -0.86
v -42 -42 -0.86
v -41 -42 -0.86
v -40 -43 -0.86
v -41 -43 -0.86
v -41 -42 -0.86
v -40 -42 -0.86
v -39 -43 -0.86
v -40 -43 -0.86
v -40 -42 -0.86
v -39 -42 -0.86
v -38 -43 -0.86
v -39 -43 -0.86
v -39 -42 -0.86
v -38 -42 -0.86
v -37 -43 -0.86
v -38 -43 -0.86
v -38 -42 -0.86
v -37 -42 -0.86
v -36 -43 -0.86
v -37 -43 -0.86
v -37 -42 -0.86
v -36 -42 -0.86
v -35 -43 -0.86
v -36 -43 -0.86
v -36 -42 -0.86
v -35 -42 -0.86
v -34 -43 -0.86
v -35 -43 -0.86
v -35 -42 -0.86
v -34 -42 -0.86
v -33 -43 -0.86
v -34 -43 -0.86
v -34 -42 -0.86
v -33 -42 -0.86
v -32 -43 -0.86
v -33 -43 -0.86
v -33 -42 -0.86
v -32 -42 -0.86
v -31 -43 -0.86
v -32 -43 -0.86
v -32 -42 -0.86
v -31 -42 -0.86
v -30 -43 -0.86
v -31 -43 -0.86
v -31 -42 -0.86
v -30 -42 -0.86
v -29 -43 -0.86
v -30 -43 -0.86
v -30 -42 -0.86
v -29 -42 -0.86
v -28 -43 -0.86
v -29 -43 -0.86
v -29 -42 -0.86
v -28 -42 -0.86
v -27 -43 -0.86
v -28 -43 -0.86
v -28 -42 -0.86
v -27 -42 -0.86
v -26 -43 -0.86
v -27 -43 -0.86
v -27 -42 -0.86
v -26 -42 -0.86
v -25 -43 -0.86
v -26 -43 -0.86
v -26 -42 -0.86
v -25 -42 -0.86
v -24 -43 -0.86
v -25 -43 -0.86
v -25 -42 -0.86
v -24 -42 -0.86
v -23 -43 -0.86
v -24 -43 -0.86
v -24 -42 -0.86
v -23 -42 -0.86
v -22 -43 -0.86
v -23 -43 -0.86
v -23 -42 -0.86
v -22 -42 -0.86
v -21 -43 -0.86
v -22 -43 -0.86
v -22 -42 -0.86
v -21 -42 -0.86
v -20 -43 -0.86
v -21 -43 -0.86
v -21 -42 -0.86
v -20 -42 -0.86
v -19 -43 -0.86
v -20 -43 -0.86
v -20 -42 -0.86
v -19 -42 -0.86
v -18 -43 -0.86
v -19 -43 -0.86
v -19 -42 -0.86
v -18 -42 -0.86
v -17 -43 -0.86
v -18 -43 -0.86
v -18 -42 -0.86
v -17 -42 -0.86
v -16 -43 -0.86
v -17 -43 -0.86
v -17 -42 -0.86
v -16 -42 -0.86
v -15 -43 -0.86
v -16 -43 -0.86
v -16 -42 -0.86
v -15 -42 -0.86
v -14 -43 -0.86
v -15 -43 -0.86
v -15 -42 -0.86
v -14 -42 -0.86
v -13 -43 -0.86
v -14 -43 -0.86
v -14 -42 -0.86
v -13 -42 -0.86
v -12 -43 -0.86
v -13 -43 -0.86
v -13 -42 -0.86
v -12 -42 -0.86
v -11 -43 -0.86
v -12 -43 -0.86
v -12 -42 -0.86
v -11 -42 -0.86
v -10 -43 -0.86
v -11 -43 -0.86
v -11 -42 -0.86
v -10 -42 -0.86
v -9 -43 -0.86
v -10 -43 -0.86
v -10 -42 -0.86
v -9 -42 -0.86
v -8 -43 -0.86
v -9 -43 -0.86
v -9 -42 -0.86
v -8 -42 -0.86
v -7 -43 -0.86
v -8 -43 -0.86
v -8 -42 -0.86
v -7 -42 -0.86
v -43 -42 -0.84
v -44 -42 -0.84
v -44 -41 -0.84
v -43 -41 -0.84
v -42 -42 -0.84
v -43 -42 -0.84
v -43 -41 -0.84
v -42 -41 -0.84
v -41 -42 -0.84
v -42 -42 -0.84
v -42 -41 -0.84
v -41 -41 -0.84
v -40 -42 -0.84
v -41 -42 -0.84
v -41 -41 -0.84
v -40 -41 -0.84
v -39 -42 -0.84
v -40 -42 -0.84
v -40 -41 -0.84
v -39 -41 -0.84
v -38 -42 -0.84
v -39 -42 -0.84
v -39 -41 -0.84
v -38 -41 -0.84
v -37 -42 -0.84
v -38 -42 -0.84
v -38 -41 -0.84
v -37 -41 -0.84
v -36 -42 -0.84
v -37 -42 -0.84
v -37 -41 -0.84
v -36 -41 -0.84
v -35 -42 -0.84
v -36 -42 -0.84
v -36 -41 -0.84
v -35 -41 -0.84
v -34 -42 -0.84
v -35 -42 -0.84
v -35 -41 -0.84
v -34 -41 -0.84
v -33 -42 -0.84
v -34 -42 -0.84
v -34 -41 -0.84
v -33 -41 -0.84
v -32 -42 -0.84
v -33 -42 -0.84
v -33 -41 -0.84
v -32 -41 -0.84
v -31 -42 -0.84
v -32 -42 -0.84
v -32 -41 -0.84
v -31 -41 -0.84
v -30 -42 -0.84
v -31 -42 -0.84
v -31 -41 -0.84
v -30 -41 -0.84
v -29 -42 -0.84
v -30 -42 -0.84
v -30 -41 -0.84
v -29 -41 -0.84
v -28 -42 -0.84
v -29 -42 -0.84
v -29 -41 -0.84
v -28 -41 -0.84
v -27 -42 -0.84
v -28 -42 -0.84
v -28 -41 -0.84
v -27 -41 -0.84
v -26 -42 -0.84
v -27 -42 -0.84
v -27 -41 -0.84
v -26 -41 -0.84
v -25 -42 -0.84
v -26 -42 -0.84
v -26 -41 -0.84
v -25 -41 -0.84
v -24 -42 -0.84
v -25 -42 -0.84
v -25 -41 -0.84
v -24 -41 -0.84
v -23 -42 -0.84
v -24 -42 -0.84
v -24 -41 -0.84
v -23 -41 -0.84
v -22 -42 -0.84
v -23 -42 -0.84
v -23 -41 -0.84
v -22 -41 -0.84
v -21 -42 -0.84
v -22 -42 -0.84
v -22 -41 -0.84
v -21 -41 -0.84
v -20 -42 -0.84
v -21 -42 -0.84
v -21 -41 -0.84
v -20 -41 -0.84
v -19 -42 -0.84
v -20 -42 -0.84
v -20 -41 -0.84
v -19 -41 -0.84
v -18 -42 -0.84
v -19 -42 -0.84
v -19 -41 -0.84
v -18 -41 -0.84
v -17 -42 -0.84
v -18 -42 -0.84
v -18 -41 -0.84
v -17 -41 -0.84
v -16 -42 -0.84
v -17 -42 -0.84
v -17 -41 -0.84
v -16 -41 -0.84
v -15 -42 -0.84
v -16 -42 -0.84
v -16 -41 -0.84
v -15 -41 -0.84
v -14 -42 -0.84
v -15 -42 -0.84
v -15 -41 -0.84
v -14 -41 -0.84
v -13 -42 -0.84
v -14 -42 -0.84
v -14 -41 -0.84
v -13 -41 -0.84
v -12 -42 -0.84
v -13 -42 -0.84
v -13 -41 -0.84
v -12 -41 -0.84
v -11 -42 -0.84
v -12 -42 -0.84
v -12 -41 -0.84
v -11 -41 -0.84
v -10 -42 -0.84
v -11 -42 -0.84
v -11 -41 -0.84
v -10 -41 -0.84
v -9 -42 -0.84
v -10 -42 -0.84
v -10 -41 -0.84
v -9 -41 -0.84
v -8 -42 -0.84
v -9 -42 -0.84
v -9 -41 -0.84
v -8 -41 -0.84
v -7 -42 -0.84
v -8 -42 -0.84
v -8 -41 -0.84
v -7 -41 -0.84
v -43 -41 -0.82
v -44 -41 -0.82
v -44 -40 -0.82
v -43 -40 -0.82
v -42 -41 -0.82
v -43 -41 -0.82
v -43 -40 -0.82
v -42 -40 -0.82
v -41 -41 -0.82
v -42 -41 -0.82
v -42 -40 -0.82
v -41 -40 -0.82
v -40 -41 -0.82
v -41 -41 -0.82
v -41 -40 -0.82
v -40 -40 -0.82
v -39 -41 -0.82
v -40 -41 -0.82
v -40 -40 -0.82
v -39 -40 -0.82
v -38 -41 -0.82
v -39 -41 -0.82
v -39 -40 -0.82
v -38 -40 -0.82
v -37 -41 -0.82
v -38 -41 -0.82
v -38 -40 -0.82
v -37 -40 -0.82
v -36 -41 -0.82
v -37 -41 -0.82
v -37 -40 -0.82
v -36 -40 -0.82
v -35 -41 -0.82
v -36 -41 -0.82
v -36 -40 -0.82
v -35 -40 -0.82
v -34 -41 -0.82
v -35 -41 -0.82
v -35 -40 -0.82
v -34 -40 -0.82
v -33 -41 -0.82
v -34 -41 -0.82
v -34 -40 -0.82
v -33 -40 -0.82
v -32 -41 -0.82
v -33 -41 -0.82
v -33 -40 -0.82
v -32 -40 -0.82
v -31 -41 -0.82
v -32 -41 -0.82
v -32 -40 -0.82
v -31 -40 -0.82
v -30 -41 -0.82
v -31 -41 -0.82
v -31 -40 -0.82
v -30 -40 -0.82
v -29 -41 -0.82
v -30 -41 -0.82
v -30 -40 -0.82
v -29 -40 -0.82
v -28 -41 -0.82
v -29 -41 -0.82
v -29 -40 -0.82
v -28 -40 -0.82
v -27 -41 -0.82
v -28 -41 -0.82
v -28 -40 -0.82
v -27 -40 -0.82
v -26 -41 -0.82
v -27 -41 -0.82
v -27 -40 -0.82
v -26 -40 -0.82
v -25 -41 -0.82
v -26 -41 -0.82
v -26 -40 -0.82
v -25 -40 -0.82
v -24 -41 -0.82
v -25 -41 -0.82
v -25 -40 -0.82
v -24 -40 -0.82
v -23 -41 -0.82
v -24 -41 -0.82
v -24 -40 -0.82
v -23 -40 -0.82
v -22 -41 -0.82
v -23 -41 -0.82
v -23 -40 -0.82
v -22 -40 -0.82
v -21 -41 -0.82
v -22 -41 -0.82
v -22 -40 -0.82
v -21 -40 -0.82
v -20 -41 -0.82
v -21 -41 -0.82
v -21 -40 -0.82
v -20 -40 -0.82
v -19 -41 -0.82
v -20 -41 -0.82
v -20 -40 -0.82
v -19 -40 -0.82
v -18 -41 -0.82
v -19 -41 -0.82
v -19 -40 -0.82
v -18 -40 -0.82
v -17 -41 -0.82
v -18 -41 -0.82
v -18 -40 -0.82
v -17 -40 -0.82
v -16 -41 -0.82
v -17 -41 -0.82
v -17 -40 -0.82
v -16 -40 -0.82
v -15 -41 -0.82
v -16 -41 -0.82
v -16 -40 -0.82
v -15 -40 -0.82
v -14 -41 -0.82
v -15 -41 -0.82
v -15 -40 -0.82
v -14 -40 -0.82
v -13 -41 -0.82
v -14 -41 -0.82
v -14 -40 -0.82
v -13 -40 -0.82
v -12 -41 -0.82
v -13 -41 -0.82
v -13 -40 -0.82
v -12 -40 -0.82
v -11 -41 -0.82
v -12 -41 -0.82
v -12 -40 -0.82
v -11 -40 -0.82
v -10 -41 -0.82
v -11 -41 -0.82
v -11 -40 -0.82
v -10 -40 -0.82
v -9 -41 -0.82
v -10 -41 -0.82
v -10 -40 -0.82
v -9 -40 -0.82
v -8 -41 -0.82
v -9 -41 -0.82
v -9 -40 -0.82
v -8 -40 -0.82
v -7 -41 -0.82
v -8 -41 -0.82
v -8 -40 -0.82
v -7 -40 -0.82
v -43 -40 -0.8
v -44 -40 -0.8
v -44 -39 -0.8
v -43 -39 -0.8
v -42 -40 -0.8
v -43 -40 -0.8
v -43 -39 -0.8
v -42 -39 -0.8
v -41 -40 -0.8
v -42 -40 -0.8
v -42 -39 -0.8
v -41 -39 -0.8
v -40 -40 -0.8
v -41 -40 -0.8
v -41 -39 -0.8
v -40 -39 -0.8
v -39 -40 -0.8
v -40 -40 -0.8
v -40 -39 -0.8
v -39 -39 -0.8
v -38 -40 -0.8
v -39 -40 -0.8
v -39 -39 -0.8
v -38 -39 -0.8
v -37 -40 -0.8
v -38 -40 -0.8
v -38 -39 -0.8
v -37 -39 -0.8
v -36 -40 -0.8
v -37 -40 -0.8
v -37 -39 -0.8
v -36 -39 -0.8
v -35 -40 -0.8
v -36 -40 -0.8
v -36 -39 -0.8
v -35 -39 -0.8
v -34 -40 -0.8
v -35 -40 -0.8
v -35 -39 -0.8
v -34 -39 -0.8
v -33 -40 -0.8
v -34 -40 -0.8
v -34 -39 -0.8
v -33 -39 -0.8
v -32 -40 -0.8
v -33 -40 -0.8
v -33 -39 -0.8
v -32 -39 -0.8
v -31 -40 -0.8
v -32 -40 -0.8
v -32 -39 -0.8
v -31 -39 -0.8
v -30 -40 -0.8
v -31 -40 -0.8
v -31 -39 -0.8
v -30 -39 -0.8
v -29 -40 -0.8
v -30 -40 -0.8
v -30 -39 -0.8
v -29 -39 -0.8
v -28 -40 -0.8
v -29 -40 -0.8
v -29 -39 -0.8
v -28 -39 -0.8
v -27 -40 -0.8
v -28 -40 -0.8
v -28 -39 -0.8
v -27 -39 -0.8
v -26 -40 -0.8
v -27 -40 -0.8
v -27 -39 -0.8
v -26 -39 -0.8
v -25 -40 -0.8
v -26 -40 -0.8
v -26 -39 -0.8
v -25 -39 -0.8
v -24 -40 -0.8
v -25 -40 -0.8
v -25 -39 -0.8
v -24 -39 -0.8
v -23 -40 -0.8
v -24 -40 -0.8
v -24 -39 -0.8
v -23 -39 -0.8
v -22 -40 -0.8
v -23 -40 -0.8
v -23 -39 -0.8
v -22 -39 -0.8
v -21 -40 -0.8
v -22 -40 -0.8
v -22 -39 -0.8
v -21 -39 -0.8
v -20 -40 -0.8
v -21 -40 -0.8
v -21 -39 -0.8
v -20 -39 -0.8
v -19 -40 -0.8
v -20 -40 -0.8
v -20 -39 -0.8
v -19 -39 -0.8
v -18 -40 -0.8
v -19 -40 -0.8
v -19 -39 -0.8
v -18 -39 -0.8
v -17 -40 -0.8
v -18 -40 -0.8
v -18 -39 -0.8
v -17 -39 -0.8
v -16 -40 -0.8
v -17 -40 -0.8
v -17 -39 -0.8
v -16 -39 -0.8
v -15 -40 -0.8
v -16 -40 -0.8
v -16 -39 -0.8
v -15 -39 -0.8
v -14 -40 -0.8
v -15 -40 -0.8
v -15 -39 -0.8
v -14 -39 -0.8
v -13 -40 -0.8
v -14 -40 -0.8
v -14 -39 -0.8
v -13 -39 -0.8
v -12 -40 -0.8
v -13 -40 -0.8
v -13 -39 -0.8
v -12 -39 -0.8
v -11 -40 -0.8
v -12 -40 -0.8
v -12 -39 -0.8
v -11 -39 -0.8
v -10 -40 -0.8
v -11 -40 -0.8
v -11 -39 -0.8
v -10 -39 -0.8
v -9 -40 -0.8
v -10 -40 -0.8
v -10 -39 -0.8
v -9 -39 -0.8
v -8 -40 -0.8
v -9 -40 -0.8
v -9 -39 -0.8
v -8 -39 -0.8
v -7 -40 -0.8
v -8 -40 -0.8
v -8 -39 -0.8
v -7 -39 -0.8
v -43 -39 -0.78
v -44 -39 -0.78
v -44 -38 -0.78
v -43 -38 -0.78
v -42 -39 -0.78
v -43 -39 -0.78
v -43 -38 -0.78
v -42 -38 -0.78
v -41 -39 -0.78
v -42 -39 -0.78
v -42 -38 -0.78
v -41 -38 -0.78
v -40 -39 -0.78
v -41 -39 -0.78
v -41 -38 -0.78
v -40 -38 -0.78
v -39 -39 -0.78
v -40 -39 -0.78
v -40 -38 -0.78
v -39 -38 -0.78
v -38 -39 -0.78
v -39 -39 -0.78
v -39 -38 -0.78
v -38 -38 -0.78
v -37 -39 -0.78
v -38 -39 -0.78
v -38 -38 -0.78
v -37 -38 -0.78
v -36 -39 -0.78
v -37 -39 -0.78
v -37 -38 -0.78
v -36 -38 -0.78
v -35 -39 -0.78
v -36 -39 -0.78
v -36 -38 -0.78
v -35 -38 -0.78
v -34 -39 -0.78
v -35 -39 -0.78
v -35 -38 -0.78
v -34 -38 -0.78
v -33 -39 -0.78
v -34 -39 -0.78
v -34 -38 -0.78
v -33 -38 -0.78
v -32 -39 -0.78
v -33 -39 -0.78
v -33 -38 -0.78
v -32 -38 -0.78
v -31 -39 -0.78
v -32 -39 -0.78
v -32 -38 -0.78
v -31 -38 -0.78
v -30 -39 -0.78
v -31 -39 -0.78
v -31 -38 -0.78
v -30 -38 -0.78
v -29 -39 -0.78
v -30 -39 -0.78
v -30 -38 -0.78
v -29 -38 -0.78
v -28 -39 -0.78
v -29 -39 -0.78
v -29 -38 -0.78
v -28 -38 -0.78
v -27 -39 -0.78
v -28 -39 -0.78
v -28 -38 -0.78
v -27 -38 -0.78
v -26 -39 -0.78
v -27 -39 -0.78
v -27 -38 -0.78
v -26 -38 -0.78
v -25 -39 -0.78
v -26 -39 -0.78
v -26 -38 -0.78
v -25 -38 -0.78
v -24 -39 -0.78
v -25 -39 -0.78
v -25 -38 -0.78
v -24 -38 -0.78
v -23 -39 -0.78
v -24 -39 -0.78
v -24 -38 -0.78
v -23 -38 -0.78
v -22 -39 -0.78
v -23 -39 -0.78
v -23 -38 -0.78
v -22 -38 -0.78
v -21 -39 -0.78
v -22 -39 -0.78
v -22 -38 -0.78
v -21 -38 -0.78
v -20 -39 -0.78
v -21 -39 -0.78
v -21 -38 -0.78
v -20 -38 -0.78
v -19 -39 -0.78
v -20 -39 -0.78
v -20 -38 -0.78
v -19 -38 -0.78
v -18 -39 -0.78
v -19 -39 -0.78
v -19 -38 -0.78
v -18 -38 -0.78
v -17 -39 -0.78
v -18 -39 -0.78
v -18 -38 -0.78
v -17 -38 -0.78
v -16 -39 -0.78
v -17 -39 -0.78
v -17 -38 -0.78
v -16 -38 -0.78
v -15 -39 -0.78
v -16 -39 -0.78
v -16 -38 -0.78
v -15 -38 -0.78
v -14 -39 -0.78
v -15 -39 -0.78
v -15 -38 -0.78
v -14 -38 -0.78
v -13 -39 -0.78
v -14 -39 -0.78
v -14 -38 -0.78
v -13 -38 -0.78
v -12 -39 -0.78
v -13 -39 -0.78
v -13 -38 -0.78
v -12 -38 -0.78
v -11 -39 -0.78
v -12 -39 -0.78
v -12 -38 -0.78
v -11 -38 -0.78
v -10 -39 -0.78
v -11 -39 -0.78
v -11 -38 -0.78
v -10 -38 -0.78
v -9 -39 -0.78
v -10 -39 -0.78
v -10 -38 -0.78
v -9 -38 -0.78
v -8 -39 -0.78
v -9 -39 -0.78
v -9 -38 -0.78
v -8 -38 -0.78
v -7 -39 -0.78
v -8 -39 -0.78
v -8 -38 -0.78
v -7 -38 -0.78
v -42 -38 -0.76
v -43 -38 -0.76
v -43 -37 -0.76
v -42 -37 -0.76
v -41 -38 -0.76
v -42 -38 -0.76
v -42 -37 -0.76
v -41 -37 -0.76
v -40 -38 -0.76
v -41 -38 -0.76
v -41 -37 -0.76
v -40 -37 -0.76
v -39 -38 -0.76
v -40 -38 -0.76
v -40 -37 -0.76
v -39 -37 -0.76
v -38 -38 -0.76
v -39 -38 -0.76
v -39 -37 -0.76
v -38 -37 -0.76
v -26 -38 -0.76
v -27 -38 -0.76
v -27 -37 -0.76
v -26 -37 -0.76
v -25 -38 -0.76
v -26 -38 -0.76
v -26 -37 -0.76
v -25 -37 -0.76
v -24 -38 -0.76
v -25 -38 -0.76
v -25 -37 -0.76
v -24 -37 -0.76
v -23 -38 -0.76
v -24 -38 -0.76
v -24 -37 -0.76
v -23 -37 -0.76
v -12 -38 -0.76
v -13 -38 -0.76
v -13 -37 -0.76
v -12 -37 -0.76
v -11 -38 -0.76
v -12 -38 -0.76
v -12 -37 -0.76
v -11 -37 -0.76
v -10 -38 -0.76
v -11 -38 -0.76
v -11 -37 -0.76
v -10 -37 -0.76
v -9 -38 -0.76
v -10 -38 -0.76
v -10 -37 -0.76
v -9 -37 -0.76
v -8 -38 -0.76
v -9 -38 -0.76
v -9 -37 -0.76
v -8 -37 -0.76
v -42 -37 -0.74
v -43 -37 -0.74
v -43 -36 -0.74
v -42 -36 -0.74
v -41 -37 -0.74
v -42 -37 -0.74
v -42 -36 -0.74
v -41 -36 -0.74
v -40 -37 -0.74
v -41 -37 -0.74
v -41 -36 -0.74
v -40 -36 -0.74
v -39 -37 -0.74
v -40 -37 -0.74
v -40 -36 -0.74
v -39 -36 -0.74
v -38 -37 -0.74
v -39 -37 -0.74
v -39 -36 -0.74
v -38 -36 -0.74
v -26 -37 -0.74
v -27 -37 -0.74
v -27 -36 -0.74
v -26 -36 -0.74
v -25 -37 -0.74
v -26 -37 -0.74
v -26 -36 -0.74
v -25 -36 -0.74
v -24 -37 -0.74
v -25 -37 -0.74
v -25 -36 -0.74
v -24 -36 -0.74
v -23 -37 -0.74
v -24 -37 -0.74
v -24 -36 -0.74
v -23 -36 -0.74
v -12 -37 -0.74
v -13 -37 -0.74
v -13 -36 -0.74
v -12 -36 -0.74
v -11 -37 -0.74
v -12 -37 -0.74
v -12 -36 -0.74
v -11 -36 -0.74
v -10 -37 -0.74
v -11 -37 -0.74
v -11 -36 -0.74
v -10 -36 -0.74
v -9 -37 -0.74
v -10 -37 -0.74
v -10 -36 -0.74
v -9 -36 -0.74
v -8 -37 -0.74
v -9 -37 -0.74
v -9 -36 -0.74
v -8 -36 -0.74
v -42 -36 -0.72
v -43 -36 -0.72
v -43 -35 -0.72
v -42 -35 -0.72
v -41 -36 -0.72
v -42 -36 -0.72
v -42 -35 -0.72
v -41 -35 -0.72
v -40 -36 -0.72
v -41 -36 -0.72
v -41 -35 -0.72
v -40 -35 -0.72
v -39 -36 -0.72
v -40 -36 -0.72
v -40 -35 -0.72
v -39 -35 -0.72
v -38 -36 -0.72
v -39 -36 -0.72
v -39 -35 -0.72
v -38 -35 -0.72
v -26 -36 -0.72
v -27 -36 -0.72
v -27 -35 -0.72
v -26 -35 -0.72
v -25 -36 -0.72
v -26 -36 -0.72
v -26 -35 -0.72
v -25 -35 -0.72
v -24 -36 -0.72
v -25 -36 -0.72
v -25 -35 -0.72
v -24 -35 -0.72
v -23 -36 -0.72
v -24 -36 -0.72
v -24 -35 -0.72
v -23 -35 -0.72
v -17 -36 -0.72
v -18 -36 -0.72
v -18 -35 -0.72
v -17 -35 -0.72
v -16 -36 -0.72
v -17 -36 -0.72
v -17 -35 -0.72
v -16 -35 -0.72
v -15 -36 -0.72
v -16 -36 -0.72
v -16 -35 -0.72
v -15 -35 -0.72
v -14 -36 -0.72
v -15 -36 -0.72
v -15 -35 -0.72
v -14 -35 -0.72
v -13 -36 -0.72
v -14 -36 -0.72
v -14 -35 -0.72
v -13 -35 -0.72
v -12 -36 -0.72
v -13 -36 -0.72
v -13 -35 -0.72
v -12 -35 -0.72
v -11 -36 -0.72
v -12 -36 -0.72
v -12 -35 -0.72
v -11 -35 -0.72
v -10 -36 -0.72
v -11 -36 -0.72
v -11 -35 -0.72
v -10 -35 -0.72
v -9 -36 -0.72
v -10 -36 -0.72
v -10 -35 -0.72
v -9 -35 -0.72
v -8 -36 -0.72
v -9 -36 -0.72
v -9 -35 -0.72
v -8 -35 -0.72
v -42 -35 -0.7
v -43 -35 -0.7
v -43 -34 -0.7
v -42 -34 -0.7
v -41 -35 -0.7
v -42 -35 -0.7
v -42 -34 -0.7
v -41 -34 -0.7
v -40 -35 -0.7
v -41 -35 -0.7
v -41 -34 -0.7
v -40 -34 -0.7
v -39 -35 -0.7
v -40 -35 -0.7
v -40 -34 -0.7
v -39 -34 -0.7
v -38 -35 -0.7
v -39 -35 -0.7
v -39 -34 -0.7
v -38 -34 -0.7
v -37 -35 -0.7
v -38 -35 -0.7
v -38 -34 -0.7
v -37 -34 -0.7
v -36 -35 -0.7
v -37 -35 -0.7
v -37 -34 -0.7
v -36 -34 -0.7
v -35 -35 -0.7
v -36 -35 -0.7
v -36 -34 -0.7
v -35 -34 -0.7
v -34 -35 -0.7
v -35 -35 -0.7
v -35 -34 -0.7
v -34 -34 -0.7
v -33 -35 -0.7
v -34 -35 -0.7
v -34 -34 -0.7
v -33 -34 -0.7
v -32 -35 -0.7
v -33 -35 -0.7
v -33 -34 -0.7
v -32 -34 -0.7
v -31 -35 -0.7
v -32 -35 -0.7
v -32 -34 -0.7
v -31 -34 -0.7
v -30 -35 -0.7
v -31 -35 -0.7
v -31 -34 -0.7
v -30 -34 -0.7
v -29 -35 -0.7
v -30 -35 -0.7
v -30 -34 -0.7
v -29 -34 -0.7
v -28 -35 -0.7
v -29 -35 -0.7
v -29 -34 -0.7
v -28 -34 -0.7
v -27 -35 -0.7
v -28 -35 -0.7
v -28 -34 -0.7
v -27 -34 -0.7
v -26 -35 -0.7
v -27 -35 -0.7
v -27 -34 -0.7
v -26 -34 -0.7
v -25 -35 -0.7
v -26 -35 -0.7
v -26 -34 -0.7
v -25 -34 -0.7
v -24 -35 -0.7
v -25 -35 -0.7
v -25 -34 -0.7
v -24 -34 -0.7
v -23 -35 -0.7
v -24 -35 -0.7
v -24 -34 -0.7
v -23 -34 -0.7
v -17 -35 -0.7
v -18 -35 -0.7
v -18 -34 -0.7
v -17 -34 -0.7
v -16 -35 -0.7
v -17 -35 -0.7
v -17 -34 -0.7
v -16 -34 -0.7
v -15 -35 -0.7
v -16 -35 -0.7
v -16 -34 -0.7
v -15 -34 -0.7
v -14 -35 -0.7
v -15 -35 -0.7
v -15 -34 -0.7
v -14 -34 -0.7
v -13 -35 -0.7
v -14 -35 -0.7
v -14 -34 -0.7
v -13 -34 -0.7
v -12 -35 -0.7
v -13 -35 -0.7
v -13 -34 -0.7
v -12 -34 -0.7
v -11 -35 -0.7
v -12 -35 -0.7
v -12 -34 -0.7
v -11 -34 -0.7
v -10 -35 -0.7
v -11 -35 -0.7
v -11 -34 -0.7
v -10 -34 -0.7
v -9 -35 -0.7
v -10 -35 -0.7
v -10 -34 -0.7
v -9 -34 -0.7
v -8 -35 -0.7
v -9 -35 -0.7
v -9 -34 -0.7
v -8 -34 -0.7
v -42 -34 -0.68
v -43 -34 -0.68
v -43 -33 -0.68
v -42 -33 -0.68
v -41 -34 -0.68
v -42 -34 -0.68
v -42 -33 -0.68
v -41 -33 -0.68
v -40 -34 -0.68
v -41 -34 -0.68
v -41 -33 -0.68
v -40 -33 -0.68
v -39 -34 -0.68
v -40 -34 -0.68
v -40 -33 -0.68
v -39 -33 -0.68
v -38 -34 -0.68
v -39 -34 -0.68
v -39 -33 -0.68
v -38 -33 -0.68
v -37 -34 -0.68
v -38 -34 -0.68
v -38 -33 -0.68
v -37 -33 -0.68
v -36 -34 -0.68
v -37 -34 -0.68
v -37 -33 -0.68
v -36 -33 -0.68
v -35 -34 -0.68
v -36 -34 -0.68
v -36 -33 -0.68
v -35 -33 -0.68
v -34 -34 -0.68
v -35 -34 -0.68
v -35 -33 -0.68
v -34 -33 -0.68
v -33 -34 -0.68
v -34 -34 -0.68
v -34 -33 -0.68
v -33 -33 -0.68
v -32 -34 -0.68
v -33 -34 -0.68
v -33 -33 -0.68
v -32 -33 -0.68
v -31 -34 -0.68
v -32 -34 -0.68
v -32 -33 -0.68
v -31 -33 -0.68
v -30 -34 -0.68
v -31 -34 -0.68
v -31 -33 -0.68
v -30 -33 -0.68
v -29 -34 -0.68
v -30 -34 -0.68
v -30 -33 -0.68
v -29 -33 -0.68
v -28 -34 -0.68
v -29 -34 -0.68
v -29 -33 -0.68
v -28 -33 -0.68
v -27 -34 -0.68
v -28 -34 -0.68
v -28 -33 -0.68
v -27 -33 -0.68
v -26 -34 -0.68
v -27 -34 -0.68
v -27 -33 -0.68
v -26 -33 -0.68
v -25 -34 -0.68
v -26 -34 -0.68
v -26 -33 -0.68
v -25 -33 -0.68
v -24 -34 -0.68
v -25 -34 -0.68
v -25 -33 -0.68
v -24 -33 -0.68
v -23 -34 -0.68
v -24 -34 -0.68
v -24 -33 -0.68
v -23 -33 -0.68
v -17 -34 -0.68
v -18 -34 -0.68
v -18 -33 -0.68
v -17 -33 -0.68
v -16 -34 -0.68
v -17 -34 -0.68
v -17 -33 -0.68
v -16 -33 -0.68
v -15 -34 -0.68
v -16 -34 -0.68
v -16 -33 -0.68
v -15 -33 -0.68
v -14 -34 -0.68
v -15 -34 -0.68
v -15 -33 -0.68
v -14 -33 -0.68
v -13 -34 -0.68
v -14 -34 -0.68
v -14 -33 -0.68
v -13 -33 -0.68
v -12 -34 -0.68
v -13 -34 -0.68
v -13 -33 -0.68
v -12 -33 -0.68
v -11 -34 -0.68
v -12 -34 -0.68
v -12 -33 -0.68
v -11 -33 -0.68
v -10 -34 -0.68
v -11 -34 -0.68
v -11 -33 -0.68
v -10 -33 -0.68
v -9 -34 -0.68
v -10 -34 -0.68
v -10 -33 -0.68
v -9 -33 -0.68
v -8 -34 -0.68
v -9 -34 -0.68
v -9 -33 -0.68
v -8 -33 -0.68
v -42 -33 -0.66
v -43 -33 -0.66
v -43 -32 -0.66
v -42 -32 -0.66
v -41 -33 -0.66
v -42 -33 -0.66
v -42 -32 -0.66
v -41 -32 -0.66
v -40 -33 -0.66
v -41 -33 -0.66
v -41 -32 -0.66
v -40 -32 -0.66
v -39 -33 -0.66
v -40 -33 -0.66
v -40 -32 -0.66
v -39 -32 -0.66
v -38 -33 -0.66
v -39 -33 -0.66
v -39 -32 -0.66
v -38 -32 -0.66
v -37 -33 -0.66
v -38 -33 -0.66
v -38 -32 -0.66
v -37 -32 -0.66
v -36 -33 -0.66
v -37 -33 -0.66
v -37 -32 -0.66
v -36 -32 -0.66
v -35 -33 -0.66
v -36 -33 -0.66
v -36 -32 -0.66
v -35 -32 -0.66
v -34 -33 -0.66
v -35 -33 -0.66
v -35 -32 -0.66
v -34 -32 -0.66
v -33 -33 -0.66
v -34 -33 -0.66
v -34 -32 -0.66
v -33 -32 -0.66
v -32 -33 -0.66
v -33 -33 -0.66
v -33 -32 -0.66
v -32 -32 -0.66
v -31 -33 -0.66
v -32 -33 -0.66
v -32 -32 -0.66
v -31 -32 -0.66
v -30 -33 -0.66
v -31 -33 -0.66
v -31 -32 -0.66
v -30 -32 -0.66
v -29 -33 -0.66
v -30 -33 -0.66
v -30 -32 -0.66
v -29 -32 -0.66
v -28 -33 -0.66
v -29 -33 -0.66
v -29 -32 -0.66
v -28 -32 -0.66
v -27 -33 -0.66
v -28 -33 -0.66
v -28 -32 -0.66
v -27 -32 -0.66
v -26 -33 -0.66
v -27 -33 -0.66
v -27 -32 -0.66
v -26 -32 -0.66
v -25 -33 -0.66
v -26 -33 -0.66
v -26 -32 -0.66
v -25 -32 -0.66
v -24 -33 -0.66
v -25 -33 -0.66
v -25 -32 -0.66
v -24 -32 -0.66
v -23 -33 -0.66
v -24 -33 -0.66
v -24 -32 -0.66
v -23 -32 -0.66
v -17 -33 -0.66
v -18 -33 -0.66
v -18 -32 -0.66
v -17 -32 -0.66
v -16 -33 -0.66
v -17 -33 -0.66
v -17 -32 -0.66
v -16 -32 -0.66
v -15 -33 -0.66
v -16 -33 -0.66
v -16 -32 -0.66
v -15 -32 -0.66
v -14 -33 -0.66
v -15 -33 -0.66
v -15 -32 -0.66
v -14 -32 -0.66
v -13 -33 -0.66
v -14 -33 -0.66
v -14 -32 -0.66
v -13 -32 -0.66
v -12 -33 -0.66
v -13 -33 -0.66
v -13 -32 -0.66
v -12 -32 -0.66
v -11 -33 -0.66
v -12 -33 -0.66
v -12 -32 -0.66
v -11 -32 -0.66
v -10 -33 -0.66
v -11 -33 -0.66
v -11 -32 -0.66
v -10 -32 -0.66
v -9 -33 -0.66
v -10 -33 -0.66
v -10 -32 -0.66
v -9 -32 -0.66
v -8 -33 -0.66
v -9 -33 -0.66
v -9 -32 -0.66
v -8 -32 -0.66
v -42 -32 -0.64
v -43 -32 -0.64
v -43 -31 -0.64
v -42 -31 -0.64
v -41 -32 -0.64
v -42 -32 -0.64
v -42 -31 -0.64
v -41 -31 -0.64
v -40 -32 -0.64
v -41 -32 -0.64
v -41 -31 -0.64
v -40 -31 -0.64
v -39 -32 -0.64
v -40 -32 -0.64
v -40 -31 -0.64
v -39 -31 -0.64
v -38 -32 -0.64
v -39 -32 -0.64
v -39 -31 -0.64
v -38 -31 -0.64
v -37 -32 -0.64
v -38 -32 -0.64
v -38 -31 -0.64
v -37 -31 -0.64
v -36 -32 -0.64
v -37 -32 -0.64
v -37 -31 -0.64
v -36 -31 -0.64
v -35 -32 -0.64
v -36 -32 -0.64
v -36 -31 -0.64
v -35 -31 -0.64
v -34 -32 -0.64
v -35 -32 -0.64
v -35 -31 -0.64
v -34 -31 -0.64
v -33 -32 -0.64
v -34 -32 -0.64
v -34 -31 -0.64
v -33 -31 -0.64
v -32 -32 -0.64
v -33 -32 -0.64
v -33 -31 -0.64
v -32 -31 -0.64
v -31 -32 -0.64
v -32 -32 -0.64
v -32 -31 -0.64
v -31 -31 -0.64
v -30 -32 -0.64
v -31 -32 -0.64
v -31 -31 -0.64
v -30 -31 -0.64
v -29 -32 -0.64
v -30 -32 -0.64
v -30 -31 -0.64
v -29 -31 -0.64
v -28 -32 -0.64
v -29 -32 -0.64
v -29 -31 -0.64
v -28 -31 -0.64
v -27 -32 -0.64
v -28 -32 -0.64
v -28 -31 -0.64
v -27 -31 -0.64
v -26 -32 -0.64
v -27 -32 -0.64
v -27 -31 -0.64
v -26 -31 -0.64
v -25 -32 -0.64
v -26 -32 -0.64
v -26 -31 -0.64
v -25 -31 -0.64
v -24 -32 -0.64
v -25 -32 -0.64
v -25 -31 -0.64
v -24 -31 -0.64
v -23 -32 -0.64
v -24 -32 -0.64
v -24 -31 -0.64
v -23 -31 -0.64
v -17 -32 -0.64
v -18 -32 -0.64
v -18 -31 -0.64
v -17 -31 -0.64
v -16 -32 -0.64
v -17 -32 -0.64
v -17 -31 -0.64
v -16 -31 -0.64
v -15 -32 -0.64
v -16 -32 -0.64
v -16 -31 -0.64
v -15 -31 -0.64
v -14 -32 -0.64
v -15 -32 -0.64
v -15 -31 -0.64
v -14 -31 -0.64
v -13 -32 -0.64
v -14 -32 -0.64
v -14 -31 -0.64
v -13 -31 -0.64
v -12 -32 -0.64
v -13 -32 -0.64
v -13 -31 -0.64
v -12 -31 -0.64
v -11 -32 -0.64
v -12 -32 -0.64
v -12 -31 -0.64
v -11 -31 -0.64
v -10 -32 -0.64
v -11 -32 -0.64
v -11 -31 -0.64
v -10 -31 -0.64
v -9 -32 -0.64
v -10 -32 -0.64
v -10 -31 -0.64
v -9 -31 -0.64
v -8 -32 -0.64
v -9 -32 -0.64
v -9 -31 -0.64
v -8 -31 -0.64
v -42 -31 -0.62
v -43 -31 -0.62
v -43 -30 -0.62
v -42 -30 -0.62
v -41 -31 -0.62
v -42 -31 -0.62
v -42 -30 -0.62
v -41 -30 -0.62
v -40 -31 -0.62
v -41 -31 -0.62
v -41 -30 -0.62
v -40 -30 -0.62
v -39 -31 -0.62
v -40 -31 -0.62
v -40 -30 -0.62
v -39 -30 -0.62
v -38 -31 -0.62
v -39 -31 -0.62
v -39 -30 -0.62
v -38 -30 -0.62
v -25 -31 -0.62
v -26 -31 -0.62
v -26 -30 -0.62
v -25 -30 -0.62
v -24 -31 -0.62
v -25 -31 -0.62
v -25 -30 -0.62
v -24 -30 -0.62
v -10 -31 -0.62
v -11 -31 -0.62
v -11 -30 -0.62
v -10 -30 -0.62
v -9 -31 -0.62
v -10 -31 -0.62
v -10 -30 -0.62
v -9 -30 -0.62
v -42 -30 -0.6
v -43 -30 -0.6
v -43 -29 -0.6
v -42 -29 -0.6
v -41 -30 -0.6
v -42 -30 -0.6
v -42 -29 -0.6
v -41 -29 -0.6
v -40 -30 -0.6
v -41 -30 -0.6
v -41 -29 -0.6
v -40 -29 -0.6
v -39 -30 -0.6
v -40 -30 -0.6
v -40 -29 -0.6
v -39 -29 -0.6
v -38 -30 -0.6
v -39 -30 -0.6
v -39 -29 -0.6
v -38 -29 -0.6
v -28 -30 -0.6
v -29 -30 -0.6
v -29 -29 -0.6
v -28 -29 -0.6
v -27 -30 -0.6
v -28 -30 -0.6
v -28 -29 -0.6
v -27 -29 -0.6
v -26 -30 -0.6
v -27 -30 -0.6
v -27 -29 -0.6
v -26 -29 -0.6
v -25 -30 -0.6
v -26 -30 -0.6
v -26 -29 -0.6
v -25 -29 -0.6
v -24 -30 -0.6
v -25 -30 -0.6
v -25 -29 -0.6
v -24 -29 -0.6
v -23 -30 -0.6
v -24 -30 -0.6
v -24 -29 -0.6
v -23 -29 -0.6
v -22 -30 -0.6
v -23 -30 -0.6
v -23 -29 -0.6
v -22 -29 -0.6
v -21 -30 -0.6
v -22 -30 -0.6
v -22 -29 -0.6
v -21 -29 -0.6
v -12 -30 -0.6
v -13 -30 -0.6
v -13 -29 -0.6
v -12 -29 -0.6
v -11 -30 -0.6
v -12 -30 -0.6
v -12 -29 -0.6
v -11 -29 -0.6
v -10 -30 -0.6
v -11 -30 -0.6
v -11 -29 -0.6
v -10 -29 -0.6
v -9 -30 -0.6
v -10 -30 -0.6
v -10 -29 -0.6
v -9 -29 -0.6
v -8 -30 -0.6
v -9 -30 -0.6
v -9 -29 -0.6
v -8 -29 -0.6
v -42 -29 -0.58
v -43 -29 -0.58
v -43 -28 -0.58
v -42 -28 -0.58
v -41 -29 -0.58
v -42 -29 -0.58
v -42 -28 -0.58
v -41 -28 -0.58
v -40 -29 -0.58
v -41 -29 -0.58
v -41 -28 -0.58
v -40 -28 -0.58
v -39 -29 -0.58
v -40 -29 -0.58
v -40 -28 -0.58
v -39 -28 -0.58
v -38 -29 -0.58
v -39 -29 -0.58
v -39 -28 -0.58
v -38 -28 -0.58
v -28 -29 -0.58
v -29 -29 -0.58
v -29 -28 -0.58
v -28 -28 -0.58
v -27 -29 -0.58
v -28 -29 -0.58
v -28 -28 -0.58
v -27 -28 -0.58
v -26 -29 -0.58
v -27 -29 -0.58
v -27 -28 -0.58
v -26 -28 -0.58
v -25 -29 -0.58
v -26 -29 -0.58
v -26 -28 -0.58
v -25 -28 -0.58
v -24 -29 -0.58
v -25 -29 -0.58
v -25 -28 -0.58
v -24 -28 -0.58
v -23 -29 -0.58
v -24 -29 -0.58
v -24 -28 -0.58
v -23 -28 -0.58
v -22 -29 -0.58
v -23 -29 -0.58
v -23 -28 -0.58
v -22 -28 -0.58
v -21 -29 -0.58
v -22 -29 -0.58
v -22 -28 -0.58
v -21 -28 -0.58
v -12 -29 -0.58
v -13 -29 -0.58
v -13 -28 -0.58
v -12 -28 -0.58
v -11 -29 -0.58
v -12 -29 -0.58
v -12 -28 -0.58
v -11 -28 -0.58
v -10 -29 -0.58
v -11 -29 -0.58
v -11 -28 -0.58
v -10 -28 -0.58
v -9 -29 -0.58
v -10 -29 -0.58
v -10 -28 -0.58
v -9 -28 -0.58
v -8 -29 -0.58
v -9 -29 -0.58
v -9 -28 -0.58
v -8 -28 -0.58
v -42 -28 -0.56
v -43 -28 -0.56
v -43 -27 -0.56
v -42 -27 -0.56
v -41 -28 -0.56
v -42 -28 -0.56
v -42 -27 -0.56
v -41 -27 -0.56
v -40 -28 -0.56
v -41 -28 -0.56
v -41 -27 -0.56
v -40 -27 -0.56
v -39 -28 -0.56
v -40 -28 -0.56
v -40 -27 -0.56
v -39 -27 -0.56
v -38 -28 -0.56
v -39 -28 -0.56
v -39 -27 -0.56
v -38 -27 -0.56
v -28 -28 -0.56
v -29 -28 -0.56
v -29 -27 -0.56
v -28 -27 -0.56
v -27 -28 -0.56
v -28 -28 -0.56
v -28 -27 -0.56
v -27 -27 -0.56
v -26 -28 -0.56
v -27 -28 -0.56
v -27 -27 -0.56
v -26 -27 -0.56
v -25 -28 -0.56
v -26 -28 -0.56
v -26 -27 -0.56
v -25 -27 -0.56
v -24 -28 -0.56
v -25 -28 -0.56
v -25 -27 -0.56
v -24 -27 -0.56
v -23 -28 -0.56
v -24 -28 -0.56
v -24 -27 -0.56
v -23 -27 -0.56
v -22 -28 -0.56
v -23 -28 -0.56
v -23 -27 -0.56
v -22 -27 -0.56
v -21 -28 -0.56
v -22 -28 -0.56
v -22 -27 -0.56
v -21 -27 -0.56
v -12 -28 -0.56
v -13 -28 -0.56
v -13 -27 -0.56
v -12 -27 -0.56
v -11 -28 -0.56
v -12 -28 -0.56
v -12 -27 -0.56
v -11 -27 -0.56
v -10 -28 -0.56
v -11 -28 -0.56
v -11 -27 -0.56
v -10 -27 -0.56
v -9 -28 -0.56
v -10 -28 -0.56
v -10 -27 -0.56
v -9 -27 -0.56
v -8 -28 -0.56
v -9 -28 -0.56
v -9 -27 -0.56
v -8 -27 -0.56
v -41 -27 -0.54
v -42 -27 -0.54
v -42 -26 -0.54
v -41 -26 -0.54
v -40 -27 -0.54
v -41 -27 -0.54
v -41 -26 -0.54
v -40 -26 -0.54
v -39 -27 -0.54
v -40 -27 -0.54
v -40 -26 -0.54
v -39 -26 -0.54
v -28 -27 -0.54
v -29 -27 -0.54
v -29 -26 -0.54
v -28 -26 -0.54
v -27 -27 -0.54
v -28 -27 -0.54
v -28 -26 -0.54
v -27 -26 -0.54
v -26 -27 -0.54
v -27 -27 -0.54
v -27 -26 -0.54
v -26 -26 -0.54
v -25 -27 -0.54
v -26 -27 -0.54
v -26 -26 -0.54
v -25 -26 -0.54
v -24 -27 -0.54
v -25 -27 -0.54
v -25 -26 -0.54
v -24 -26 -0.54
v -23 -27 -0.54
v -24 -27 -0.54
v -24 -26 -0.54
v -23 -26 -0.54
v -22 -27 -0.54
v -23 -27 -0.54
v -23 -26 -0.54
v -22 -26 -0.54
v -21 -27 -0.54
v -22 -27 -0.54
v -22 -26 -0.54
v -21 -26 -0.54
v -11 -27 -0.54
v -12 -27 -0.54
v -12 -26 -0.54
v -11 -26 -0.54
v -10 -27 -0.54
v -11 -27 -0.54
v -11 -26 -0.54
v -10 -26 -0.54
v -9 -27 -0.54
v -10 -27 -0.54
v -10 -26 -0.54
v -9 -26 -0.54
v -28 -26 -0.52
v -29 -26 -0.52
v -29 -25 -0.52
v -28 -25 -0.52
v -27 -26 -0.52
v -28 -26 -0.52
v -28 -25 -0.52
v -27 -25 -0.52
v -26 -26 -0.52
v -27 -26 -0.52
v -27 -25 -0.52
v -26 -25 -0.52
v -25 -26 -0.52
v -26 -26 -0.52
v -26 -25 -0.52
v -25 -25 -0.52
v -24 -26 -0.52
v -25 -26 -0.52
v -25 -25 -0.52
v -24 -25 -0.52
v -23 -26 -0.52
v -24 -26 -0.52
v -24 -25 -0.52
v -23 -25 -0.52
v -22 -26 -0.52
v -23 -26 -0.52
v -23 -25 -0.52
v -22 -25 -0.52
v -21 -26 -0.52
v -22 -26 -0.52
v -22 -25 -0.52
v -21 -25 -0.52
v -28 -25 -0.5
v -29 -25 -0.5
v -29 -24 -0.5
v -28 -24 -0.5
v -27 -25 -0.5
v -28 -25 -0.5
v -28 -24 -0.5
v -27 -24 -0.5
v -26 -25 -0.5
v -27 -25 -0.5
v -27 -24 -0.5
v -26 -24 -0.5
v -25 -25 -0.5
v -26 -25 -0.5
v -26 -24 -0.5
v -25 -24 -0.5
v -24 -25 -0.5
v -25 -25 -0.5
v -25 -24 -0.5
v -24 -24 -0.5
v -23 -25 -0.5
v -24 -25 -0.5
v -24 -24 -0.5
v -23 -24 -0.5
v -22 -25 -0.5
v -23 -25 -0.5
v -23 -24 -0.5
v -22 -24 -0.5
v -21 -25 -0.5
v -22 -25 -0.5
v -22 -24 -0.5
v -21 -24 -0.5
v -28 -24 -0.48
v -29 -24 -0.48
v -29 -23 -0.48
v -28 -23 -0.48
v -27 -24 -0.48
v -28 -24 -0.48
v -28 -23 -0.48
v -27 -23 -0.48
v -26 -24 -0.48
v -27 -24 -0.48
v -27 -23 -0.48
v -26 -23 -0.48
v -25 -24 -0.48
v -26 -24 -0.48
v -26 -23 -0.48
v -25 -23 -0.48
v -24 -24 -0.48
v -25 -24 -0.48
v -25 -23 -0.48
v -24 -23 -0.48
v -23 -24 -0.48
v -24 -24 -0.48
v -24 -23 -0.48
v -23 -23 -0.48
v -22 -24 -0.48
v -23 -24 -0.48
v -23 -23 -0.48
v -22 -23 -0.48
v -21 -24 -0.48
v -22 -24 -0.48
v -22 -23 -0.48
v -21 -23 -0.48
v -28 -23 -0.46
v -29 -23 -0.46
v -29 -22 -0.46
v -28 -22 -0.46
v -27 -23 -0.46
v -28 -23 -0.46
v -28 -22 -0.46
v -27 -22 -0.46
v -26 -23 -0.46
v -27 -23 -0.46
v -27 -22 -0.46
v -26 -22 -0.46
v -25 -23 -0.46
v -26 -23 -0.46
v -26 -22 -0.46
v -25 -22 -0.46
v -24 -23 -0.46
v -25 -23 -0.46
v -25 -22 -0.46
v -24 -22 -0.46
v -23 -23 -0.46
v -24 -23 -0.46
v -24 -22 -0.46
v -23 -22 -0.46
v -22 -23 -0.46
v -23 -23 -0.46
v -23 -22 -0.46
v -22 -22 -0.46
v -21 -23 -0.46
v -22 -23 -0.46
v -22 -22 -0.46
v -21 -22 -0.46
v -28 -22 -0.44
v -29 -22 -0.44
v -29 -21 -0.44
v -28 -21 -0.44
v -27 -22 -0.44
v -28 -22 -0.44
v -28 -21 -0.44
v -27 -21 -0.44
v -26 -22 -0.44
v -27 -22 -0.44
v -27 -21 -0.44
v -26 -21 -0.44
v -25 -22 -0.44
v -26 -22 -0.44
v -26 -21 -0.44
v -25 -21 -0.44
v -24 -22 -0.44
v -25 -22 -0.44
v -25 -21 -0.44
v -24 -21 -0.44
v -23 -22 -0.44
v -24 -22 -0.44
v -24 -21 -0.44
v -23 -21 -0.44
v -22 -22 -0.44
v -23 -22 -0.44
v -23 -21 -0.44
v -22 -21 -0.44
v -21 -22 -0.44
v -22 -22 -0.44
v -22 -21 -0.44
v -21 -21 -0.44
v -28 -21 -0.42
v -29 -21 -0.42
v -29 -20 -0.42
v -28 -20 -0.42
v -27 -21 -0.42
v -28 -21 -0.42
v -28 -20 -0.42
v -27 -20 -0.42
v -26 -21 -0.42
v -27 -21 -0.42
v -27 -20 -0.42
v -26 -20 -0.42
v -25 -21 -0.42
v -26 -21 -0.42
v -26 -20 -0.42
v -25 -20 -0.42
v -24 -21 -0.42
v -25 -21 -0.42
v -25 -20 -0.42
v -24 -20 -0.42
v -23 -21 -0.42
v -24 -21 -0.42
v -24 -20 -0.42
v -23 -20 -0.42
v -22 -21 -0.42
v -23 -21 -0.42
v -23 -20 -0.42
v -22 -20 -0.42
v -21 -21 -0.42
v -22 -21 -0.42
v -22 -20 -0.42
v -21 -20 -0.42
v -28 -20 -0.4
v -29 -20 -0.4
v -29 -19 -0.4
v -28 -19 -0.4
v -27 -20 -0.4
v -28 -20 -0.4
v -28 -19 -0.4
v -27 -19 -0.4
v -26 -20 -0.4
v -27 -20 -0.4
v -27 -19 -0.4
v -26 -19 -0.4
v -25 -20 -0.4
v -26 -20 -0.4
v -26 -19 -0.4
v -25 -19 -0.4
v -24 -20 -0.4
v -25 -20 -0.4
v -25 -19 -0.4
v -24 -19 -0.4
v -23 -20 -0.4
v -24 -20 -0.4
v -24 -19 -0.4
v -23 -19 -0.4
v -22 -20 -0.4
v -23 -20 -0.4
v -23 -19 -0.4
v -22 -19 -0.4
v -21 -20 -0.4
v -22 -20 -0.4
v -22 -19 -0.4
v -21 -19 -0.4
v -28 -19 -0.38
v -29 -19 -0.38
v -29 -18 -0.38
v -28 -18 -0.38
v -27 -19 -0.38
v -28 -19 -0.38
v -28 -18 -0.38
v -27 -18 -0.38
v -26 -19 -0.38
v -27 -19 -0.38
v -27 -18 -0.38
v -26 -18 -0.38
v -25 -19 -0.38
v -26 -19 -0.38
v -26 -18 -0.38
v -25 -18 -0.38
v -24 -19 -0.38
v -25 -19 -0.38
v -25 -18 -0.38
v -24 -18 -0.38
v -23 -19 -0.38
v -24 -19 -0.38
v -24 -18 -0.38
v -23 -18 -0.38
v -22 -19 -0.38
v -23 -19 -0.38
v -23 -18 -0.38
v -22 -18 -0.38
v -21 -19 -0.38
v -22 -19 -0.38
v -22 -18 -0.38
v -21 -18 -0.38
v -28 -18 -0.36
v -29 -18 -0.36
v -29 -17 -0.36
v -28 -17 -0.36
v -27 -18 -0.36
v -28 -18 -0.36
v -28 -17 -0.36
v -27 -17 -0.36
v -26 -18 -0.36
v -27 -18 -0.36
v -27 -17 -0.36
v -26 -17 -0.36
v -25 -18 -0.36
v -26 -18 -0.36
v -26 -17 -0.36
v -25 -17 -0.36
v -24 -18 -0.36
v -25 -18 -0.36
v -25 -17 -0.36
v -24 -17 -0.36
v -23 -18 -0.36
v -24 -18 -0.36
v -24 -17 -0.36
v -23 -17 -0.36
v -22 -18 -0.36
v -23 -18 -0.36
v -23 -17 -0.36
v -22 -17 -0.36
v -21 -18 -0.36
v -22 -18 -0.36
v -22 -17 -0.36
v -21 -17 -0.36
v -28 -17 -0.34
v -29 -17 -0.34
v -29 -16 -0.34
v -28 -16 -0.34
v -27 -17 -0.34
v -28 -17 -0.34
v -28 -16 -0.34
v -27 -16 -0.34
v -26 -17 -0.34
v -27 -17 -0.34
v -27 -16 -0.34
v -26 -16 -0.34
v -25 -17 -0.34
v -26 -17 -0.34
v -26 -16 -0.34
v -25 -16 -0.34
v -24 -17 -0.34
v -25 -17 -0.34
v -25 -16 -0.34
v -24 -16 -0.34
v -23 -17 -0.34
v -24 -17 -0.34
v -24 -16 -0.34
v -23 -16 -0.34
v -22 -17 -0.34
v -23 -17 -0.34
v -23 -16 -0.34
v -22 -16 -0.34
v -21 -17 -0.34
v -22 -17 -0.34
v -22 -16 -0.34
v -21 -16 -0.34
v -28 -16 -0.32
v -29 -16 -0.32
v -29 -15 -0.32
v -28 -15 -0.32
v -27 -16 -0.32
v -28 -16 -0.32
v -28 -15 -0.32
v -27 -15 -0.32
v -26 -16 -0.32
v -27 -16 -0.32
v -27 -15 -0.32
v -26 -15 -0.32
v -25 -16 -0.32
v -26 -16 -0.32
v -26 -15 -0.32
v -25 -15 -0.32
v -24 -16 -0.32
v -25 -16 -0.32
v -25 -15 -0.32
v -24 -15 -0.32
v -23 -16 -0.32
v -24 -16 -0.32
v -24 -15 -0.32
v -23 -15 -0.32
v -22 -16 -0.32
v -23 -16 -0.32
v -23 -15 -0.32
v -22 -15 -0.32
v -21 -16 -0.32
v -22 -16 -0.32
v -22 -15 -0.32
v -21 -15 -0.32
v -28 -15 -0.3
v -29 -15 -0.3
v -29 -14 -0.3
v -28 -14 -0.3
v -27 -15 -0.3
v -28 -15 -0.3
v -28 -14 -0.3
v -27 -14 -0.3
v -26 -15 -0.3
v -27 -15 -0.3
v -27 -14 -0.3
v -26 -14 -0.3
v -25 -15 -0.3
v -26 -15 -0.3
v -26 -14 -0.3
v -25 -14 -0.3
v -24 -15 -0.3
v -25 -15 -0.3
v -25 -14 -0.3
v -24 -14 -0.3
v -23 -15 -0.3
v -24 -15 -0.3
v -24 -14 -0.3
v -23 -14 -0.3
v -22 -15 -0.3
v -23 -15 -0.3
v -23 -14 -0.3
v -22 -14 -0.3
v -21 -15 -0.3
v -22 -15 -0.3
v -22 -14 -0.3
v -21 -14 -0.3
v -31 -14 -0.28
v -32 -14 -0.28
v -32 -13 -0.28
v -31 -13 -0.28
v -30 -14 -0.28
v -31 -14 -0.28
v -31 -13 -0.28
v -30 -13 -0.28
v -29 -14 -0.28
v -30 -14 -0.28
v -30 -13 -0.28
v -29 -13 -0.28
v -28 -14 -0.28
v -29 -14 -0.28
v -29 -13 -0.28
v -28 -13 -0.28
v -27 -14 -0.28
v -28 -14 -0.28
v -28 -13 -0.28
v -27 -13 -0.28
v -26 -14 -0.28
v -27 -14 -0.28
v -27 -13 -0.28
v -26 -13 -0.28
v -25 -14 -0.28
v -26 -14 -0.28
v -26 -13 -0.28
v -25 -13 -0.28
v -24 -14 -0.28
v -25 -14 -0.28
v -25 -13 -0.28
v -24 -13 -0.28
v -23 -14 -0.28
v -24 -14 -0.28
v -24 -13 -0.28
v -23 -13 -0.28
v -22 -14 -0.28
v -23 -14 -0.28
v -23 -13 -0.28
v -22 -13 -0.28
v -21 -14 -0.28
v -22 -14 -0.28
v -22 -13 -0.28
v -21 -13 -0.28
v -20 -14 -0.28
v -21 -14 -0.28
v -21 -13 -0.28
v -20 -13 -0.28
v -19 -14 -0.28
v -20 -14 -0.28
v -20 -13 -0.28
v -19 -13 -0.28
v -18 -14 -0.28
v -19 -14 -0.28
v -19 -13 -0.28
v -18 -13 -0.28
v -31 -13 -0.26
v -32 -13 -0.26
v -32 -12 -0.26
v -31 -12 -0.26
v -30 -13 -0.26
v -31 -13 -0.26
v -31 -12 -0.26
v -30 -12 -0.26
v -29 -13 -0.26
v -30 -13 -0.26
v -30 -12 -0.26
v -29 -12 -0.26
v -28 -13 -0.26
v -29 -13 -0.26
v -29 -12 -0.26
v -28 -12 -0.26
v -27 -13 -0.26
v -28 -13 -0.26
v -28 -12 -0.26
v -27 -12 -0.26
v -26 -13 -0.26
v -27 -13 -0.26
v -27 -12 -0.26
v -26 -12 -0.26
v -25 -13 -0.26
v -26 -13 -0.26
v -26 -12 -0.26
v -25 -12 -0.26
v -24 -13 -0.26
v -25 -13 -0.26
v -25 -12 -0.26
v -24 -12 -0.26
v -23 -13 -0.26
v -24 -13 -0.26
v -24 -12 -0.26
v -23 -12 -0.26
v -22 -13 -0.26
v -23 -13 -0.26
v -23 -12 -0.26
v -22 -12 -0.26
v -21 -13 -0.26
v -22 -13 -0.26
v -22 -12 -0.26
v -21 -12 -0.26
v -20 -13 -0.26
v -21 -13 -0.26
v -21 -12 -0.26
v -20 -12 -0.26
v -19 -13 -0.26
v -20 -13 -0.26
v -20 -12 -0.26
v -19 -12 -0.26
v -18 -13 -0.26
v -19 -13 -0.26
v -19 -12 -0.26
v -18 -12 -0.26
v -31 -12 -0.24
v -32 -12 -0.24
v -32 -11 -0.24
v -31 -11 -0.24
v -30 -12 -0.24
v -31 -12 -0.24
v -31 -11 -0.24
v -30 -11 -0.24
v -29 -12 -0.24
v -30 -12 -0.24
v -30 -11 -0.24
v -29 -11 -0.24
v -28 -12 -0.24
v -29 -12 -0.24
v -29 -11 -0.24
v -28 -11 -0.24
v -27 -12 -0.24
v -28 -12 -0.24
v -28 -11 -0.24
v -27 -11 -0.24
v -26 -12 -0.24
v -27 -12 -0.24
v -27 -11 -0.24
v -26 -11 -0.24
v -25 -12 -0.24
v -26 -12 -0.24
v -26 -11 -0.24
v -25 -11 -0.24
v -24 -12 -0.24
v -25 -12 -0.24
v -25 -11 -0.24
v -24 -11 -0.24
v -23 -12 -0.24
v -24 -12 -0.24
v -24 -11 -0.24
v -23 -11 -0.24
v -22 -12 -0.24
v -23 -12 -0.24
v -23 -11 -0.24
v -22 -11 -0.24
v -21 -12 -0.24
v -22 -12 -0.24
v -22 -11 -0.24
v -21 -11 -0.24
v -20 -12 -0.24
v -21 -12 -0.24
v -21 -11 -0.24
v -20 -11 -0.24
v -19 -12 -0.24
v -20 -12 -0.24
v -20 -11 -0.24
v -19 -11 -0.24
v -18 -12 -0.24
v -19 -12 -0.24
v -19 -11 -0.24
v -18 -11 -0.24
v -30 -11 -0.22
v -31 -11 -0.22
v -31 -10 -0.22
v -30 -10 -0.22
v -29 -11 -0.22
v -30 -11 -0.22
v -30 -10 -0.22
v -29 -10 -0.22
v -28 -11 -0.22
v -29 -11 -0.22
v -29 -10 -0.22
v -28 -10 -0.22
v -27 -11 -0.22
v -28 -11 -0.22
v -28 -10 -0.22
v -27 -10 -0.22
v -26 -11 -0.22
v -27 -11 -0.22
v -27 -10 -0.22
v -26 -10 -0.22
v -25 -11 -0.22
v -26 -11 -0.22
v -26 -10 -0.22
v -25 -10 -0.22
v -24 -11 -0.22
v -25 -11 -0.22
v -25 -10 -0.22
v -24 -10 -0.22
v -23 -11 -0.22
v -24 -11 -0.22
v -24 -10 -0.22
v -23 -10 -0.22
v -22 -11 -0.22
v -23 -11 -0.22
v -23 -10 -0.22
v -22 -10 -0.22
v -21 -11 -0.22
v -22 -11 -0.22
v -22 -10 -0.22
v -21 -10 -0.22
v -20 -11 -0.22
v -21 -11 -0.22
v -21 -10 -0.22
v -20 -10 -0.22
v -19 -11 -0.22
v -20 -11 -0.22
v -20 -10 -0.22
v -19 -10 -0.22
v -27 -10 -0.2
v -28 -10 -0.2
v -28 -9 -0.2
v -27 -9 -0.2
v -26 -10 -0.2
v -27 -10 -0.2
v -27 -9 -0.2
v -26 -9 -0.2
v -25 -10 -0.2
v -26 -10 -0.2
v -26 -9 -0.2
v -25 -9 -0.2
v -24 -10 -0.2
v -25 -10 -0.2
v -25 -9 -0.2
v -24 -9 -0.2
v -23 -10 -0.2
v -24 -10 -0.2
v -24 -9 -0.2
v -23 -9 -0.2
v -22 -10 -0.2
v -23 -10 -0.2
v -23 -9 -0.2
v -22 -9 -0.2
v -27 -9 -0.18
v -28 -9 -0.18
v -28 -8 -0.18
v -27 -8 -0.18
v -26 -9 -0.18
v -27 -9 -0.18
v -27 -8 -0.18
v -26 -8 -0.18
v -25 -9 -0.18
v -26 -9 -0.18
v -26 -8 -0.18
v -25 -8 -0.18
v -24 -9 -0.18
v -25 -9 -0.18
v -25 -8 -0.18
v -24 -8 -0.18
v -23 -9 -0.18
v -24 -9 -0.18
v -24 -8 -0.18
v -23 -8 -0.18
v -22 -9 -0.18
v -23 -9 -0.18
v -23 -8 -0.18
v -22 -8 -0.18
v -27 -8 -0.16
v -28 -8 -0.16
v -28 -7 -0.16
v -27 -7 -0.16
v -26 -8 -0.16
v -27 -8 -0.16
v -27 -7 -0.16
v -26 -7 -0.16
v -25 -8 -0.16
v -26 -8 -0.16
v -26 -7 -0.16
v -25 -7 -0.16
v -24 -8 -0.16
v -25 -8 -0.16
v -25 -7 -0.16
v -24 -7 -0.16
v -23 -8 -0.16
v -24 -8 -0.16
v -24 -7 -0.16
v -23 -7 -0.16
v -22 -8 -0.16
v -23 -8 -0.16
v -23 -7 -0.16
v -22 -7 -0.16

# Texture cooridinates (Count = 4)
vt 0.1 0.9
vt 0.2 0.9
vt 0.2 1
vt 0.1 1

# Normal
vn 0 0 -1

# Mesh description
g Map_mesh_0002

# Faces
f 1/1/1 2/2/1 3/3/1 4/4/1
f 5/1/1 6/2/1 7/3/1 8/4/1
f 9/1/1 10/2/1 11/3/1 12/4/1
f 13/1/1 14/2/1 15/3/1 16/4/1
f 17/1/1 18/2/1 19/3/1 20/4/1
f 21/1/1 22/2/1 23/3/1 24/4/1
f 25/1/1 26/2/1 27/3/1 28/4/1
f 29/1/1 30/2/1 31/3/1 32/4/1
f 33/1/1 34/2/1 35/3/1 36/4/1
f 37/1/1 38/2/1 39/3/1 40/4/1
f 41/1/1 42/2/1 43/3/1 44/4/1
f 45/1/1 46/2/1 47/3/1 48/4/1
f 49/1/1 50/2/1 51/3/1 52/4/1
f 53/1/1 54/2/1 55/3/1 56/4/1
f 57/1/1 58/2/1 59/3/1 60/4/1
f 61/1/1 62/2/1 63/3/1 64/4/1
f 65/1/1 66/2/1 67/3/1 68/4/1
f 69/1/1 70/2/1 71/3/1 72/4/1
f 73/1/1 74/2/1 75/3/1 76/4/1
f 77/1/1 78/2/1 79/3/1 80/4/1
f 81/1/1 82/2/1 83/3/1 84/4/1
f 85/1/1 86/2/1 87/3/1 88/4/1
f 89/1/1 90/2/1 91/3/1 92/4/1
f 93/1/1 94/2/1 95/3/1 96/4/1
f 97/1/1 98/2/1 99/3/1 100/4/1
f 101/1/1 102/2/1 103/3/1 104/4/1
f 105/1/1 106/2/1 107/3/1 108/4/1
f 109/1/1 110/2/1 111/3/1 112/4/1
f 113/1/1 114/2/1 115/3/1 116/4/1
f 117/1/1 118/2/1 119/3/1 120/4/1
f 121/1/1 122/2/1 123/3/1 124/4/1
f 125/1/1 126/2/1 127/3/1 128/4/1
f 129/1/1 130/2/1 131/3/1 132/4/1
f 133/1/1 134/2/1 135/3/1 136/4/1
f 137/1/1 138/2/1 139/3/1 140/4/1
f 141/1/1 142/2/1 143/3/1 144/4/1
f 145/1/1 146/2/1 147/3/1 148/4/1
f 149/1/1 150/2/1 151/3/1 152/4/1
f 153/1/1 154/2/1 155/3/1 156/4/1
f 157/1/1 158/2/1 159/3/1 160/4/1
f 161/1/1 162/2/1 163/3/1 164/4/1
f 165/1/1 166/2/1 167/3/1 168/4/1
f 169/1/1 170/2/1 171/3/1 172/4/1
f 173/1/1 174/2/1 175/3/1 176/4/1
f 177/1/1 178/2/1 179/3/1 180/4/1
f 181/1/1 182/2/1 183/3/1 184/4/1
f 185/1/1 186/2/1 187/3/1 188/4/1
f 189/1/1 190/2/1 191/3/1 192/4/1
f 193/1/1 194/2/1 195/3/1 196/4/1
f 197/1/1 198/2/1 199/3/1 200/4/1
f 201/1/1 202/2/1 203/3/1 204/4/1
f 205/1/1 206/2/1 207/3/1 208/4/1
f 209/1/1 210/2/1 211/3/1 212/4/1
f 213/1/1 214/2/1 215/3/1 216/4/1
f 217/1/1 218/2/1 219/3/1 220/4/1
f 221/1/1 222/2/1 223/3/1 224/4/1
f 225/1/1 226/2/1 227/3/1 228/4/1
f 229/1/1 230/2/1 231/3/1 232/4/1
f 233/1/1 234/2/1 235/3/1 236/4/1
f 237/1/1 238/2/1 239/3/1 240/4/1
f 241/1/1 242/2/1 243/3/1 244/4/1
f 245/1/1 246/2/1 247/3/1 248/4/1
f 249/1/1 250/2/1 251/3/1 252/4/1
f 253/1/1 254/2/1 255/3/1 256/4/1
f 257/1/1 258/2/1 259/3/1 260/4/1
f 261/1/1 262/2/1 263/3/1 264/4/1
f 265/1/1 266/2/1 267/3/1 268/4/1
f 269/1/1 270/2/1 271/3/1 272/4/1
f 273/1/1 274/2/1 275/3/1 276/4/1
f 277/1/1 278/2/1 279/3/1 280/4/1
f 281/1/1 282/2/1 283/3/1 284/4/1
f 285/1/1 286/2/1 287/3/1 288/4/1
f 289/1/1 290/2/1 291/3/1 292/4/1
f 293/1/1 294/2/1 295/3/1 296/4/1
f 297/1/1 298/2/1 299/3/1 300/4/1
f 301/1/1 302/2/1 303/3/1 304/4/1
f 305/1/1 306/2/1 307/3/1 308/4/1
f 309/1/1 310/2/1 311/3/1 312/4/1
f 313/1/1 314/2/1 315/3/1 316/4/1
f 317/1/1 318/2/1 319/3/1 320/4/1
f 321/1/1 322/2/1 323/3/1 324/4/1
f 325/1/1 326/2/1 327/3/1 328/4/1
f 329/1/1 330/2/1 331/3/1 332/4/1
f 333/1/1 334/2/1 335/3/1 336/4/1
f 337/1/1 338/2/1 339/3/1 340/4/1
f 341/1/1 342/2/1 343/3/1 344/4/1
f 345/1/1 346/2/1 347/3/1 348/4/1
f 349/1/1 350/2/1 351/3/1 352/4/1
f 353/1/1 354/2/1 355/3/1 356/4/1
f 357/1/1 358/2/1 359/3/1 360/4/1
f 361/1/1 362/2/1 363/3/1 364/4/1
f 365/1/1 366/2/1 367/3/1 368/4/1
f 369/1/1 370/2/1 371/3/1 372/4/1
f 373/1/1 374/2/1 375/3/1 376/4/1
f 377/1/1 378/2/1 379/3/1 380/4/1
f 381/1/1 382/2/1 383/3/1 384/4/1
f 385/1/1 386/2/1 387/3/1 388/4/1
f 389/1/1 390/2/1 391/3/1 392/4/1
f 393/1/1 394/2/1 395/3/1 396/4/1
f 397/1/1 398/2/1 399/3/1 400/4/1
f 401/1/1 402/2/1 403/3/1 404/4/1
f 405/1/1 406/2/1 407/3/1 408/4/1
f 409/1/1 410/2/1 411/3/1 412/4/1
f 413/1/1 414/2/1 415/3/1 416/4/1
f 417/1/1 418/2/1 419/3/1 420/4/1
f 421/1/1 422/2/1 423/3/1 424/4/1
f 425/1/1 426/2/1 427/3/1 428/4/1
f 429/1/1 430/2/1 431/3/1 432/4/1
f 433/1/1 434/2/1 435/3/1 436/4/1
f 437/1/1 438/2/1 439/3/1 440/4/1
f 441/1/1 442/2/1 443/3/1 444/4/1
f 445/1/1 446/2/1 447/3/1 448/4/1
f 449/1/1 450/2/1 451/3/1 452/4/1
f 453/1/1 454/2/1 455/3/1 456/4/1
f 457/1/1 458/2/1 459/3/1 460/4/1
f 461/1/1 462/2/1 463/3/1 464/4/1
f 465/1/1 466/2/1 467/3/1 468/4/1
f 469/1/1 470/2/1 471/3/1 472/4/1
f 473/1/1 474/2/1 475/3/1 476/4/1
f 477/1/1 478/2/1 479/3/1 480/4/1
f 481/1/1 482/2/1 483/3/1 484/4/1
f 485/1/1 486/2/1 487/3/1 488/4/1
f 489/1/1 490/2/1 491/3/1 492/4/1
f 493/1/1 494/2/1 495/3/1 496/4/1
f 497/1/1 498/2/1 499/3/1 500/4/1
f 501/1/1 502/2/1 503/3/1 504/4/1
f 505/1/1 506/2/1 507/3/1 508/4/1
f 509/1/1 510/2/1 511/3/1 512/4/1
f 513/1/1 514/2/1 515/3/1 516/4/1
f 517/1/1 518/2/1 519/3/1 520/4/1
f 521/1/1 522/2/1 523/3/1 524/4/1
f 525/1/1 526/2/1 527/3/1 528/4/1
f 529/1/1 530/2/1 531/3/1 532/4/1
f 533/1/1 534/2/1 535/3/1 536/4/1
f 537/1/1 538/2/1 539/3/1 540/4/1
f 541/1/1 542/2/1 543/3/1 544/4/1
f 545/1/1 546/2/1 547/3/1 548/4/1
f 549/1/1 550/2/1 551/3/1 552/4/1
f 553/1/1 554/2/1 555/3/1 556/4/1
f 557/1/1 558/2/1 559/3/1 560/4/1
f 561/1/1 562/2/1 563/3/1 564/4/1
f 565/1/1 566/2/1 567/3/1 568/4/1
f 569/1/1 570/2/1 571/3/1 572/4/1
f 573/1/1 574/2/1 575/3/1 576/4/1
f 577/1/1 578/2/1 579/3/1 580/4/1
f 581/1/1 582/2/1 583/3/1 584/4/1
f 585/1/1 586/2/1 587/3/1 588/4/1
f 589/1/1 590/2/1 591/3/1 592/4/1
f 593/1/1 594/2/1 595/3/1 596/4/1
f 597/1/1 598/2/1 599/3/1 600/4/1
f 601/1/1 602/2/1 603/3/1 604/4/1
f 605/1/1 606/2/1 607/3/1 608/4/1
f 609/1/1 610/2/1 611/3/1 612/4/1
f 613/1/1 614/2/1 615/3/1 616/4/1
f 617/1/1 618/2/1 619/3/1 620/4/1
f 621/1/1 622/2/1 623/3/1 624/4/1
f 625/1/1 626/2/1 627/3/1 628/4/1
f 629/1/1 630/2/1 631/3/1 632/4/1
f 633/1/1 634/2/1 635/3/1 636/4/1
f 637/1/1 638/2/1 639/3/1 640/4/1
f 641/1/1 642/2/1 643/3/1 644/4/1
f 645/1/1 646/2/1 647/3/1 648/4/1
f 649/1/1 650/2/1 651/3/1 652/4/1
f 653/1/1 654/2/1 655/3/1 656/4/1
f 657/1/1 658/2/1 659/3/1 660/4/1
f 661/1/1 662/2/1 663/3/1 664/4/1
f 665/1/1 666/2/1 667/3/1 668/4/1
f 669/1/1 670/2/1 671/3/1 672/4/1
f 673/1/1 674/2/1 675/3/1 676/4/1
f 677/1/1 678/2/1 679/3/1 680/4/1
f 681/1/1 682/2/1 683/3/1 684/4/1
f 685/1/1 686/2/1 687/3/1 688/4/1
f 689/1/1 690/2/1 691/3/1 692/4/1
f 693/1/1 694/2/1 695/3/1 696/4/1
f 697/1/1 698/2/1 699/3/1 700/4/1
f 701/1/1 702/2/1 703/3/1 704/4/1
f 705/1/1 706/2/1 707/3/1 708/4/1
f 709/1/1 710/2/1 711/3/1 712/4/1
f 713/1/1 714/2/1 715/3/1 716/4/1
f 717/1/1 718/2/1 719/3/1 720/4/1
f 721/1/1 722/2/1 723/3/1 724/4/1
f 725/1/1 726/2/1 727/3/1 728/4/1
f 729/1/1 730/2/1 731/3/1 732/4/1
f 733/1/1 734/2/1 735/3/1 736/4/1
f 737/1/1 738/2/1 739/3/1 740/4/1
f 741/1/1 742/2/1 743/3/1 744/4/1
f 745/1/1 746/2/1 747/3/1 748/4/1
f 749/1/1 750/2/1 751/3/1 752/4/1
f 753/1/1 754/2/1 755/3/1 756/4/1
f 757/1/1 758/2/1 759/3/1 760/4/1
f 761/1/1 762/2/1 763/3/1 764/4/1
f 765/1/1 766/2/1 767/3/1 768/4/1
f 769/1/1 770/2/1 771/3/1 772/4/1
f 773/1/1 774/2/1 775/3/1 776/4/1
f 777/1/1 778/2/1 779/3/1 780/4/1
f 781/1/1 782/2/1 783/3/1 784/4/1
f 785/1/1 786/2/1 787/3/1 788/4/1
f 789/1/1 790/2/1 791/3/1 792/4/1
f 793/1/1 794/2/1 795/3/1 796/4/1
f 797/1/1 798/2/1 799/3/1 800/4/1
f 801/1/1 802/2/1 803/3/1 804/4/1
f 805/1/1 806/2/1 807/3/1 808/4/1
f 809/1/1 810/2/1 811/3/1 812/4/1
f 813/1/1 814/2/1 815/3/1 816/4/1
f 817/1/1 818/2/1 819/3/1 820/4/1
f 821/1/1 822/2/1 823/3/1 824/4/1
f 825/1/1 826/2/1 827/3/1 828/4/1
f 829/1/1 830/2/1 831/3/1 832/4/1
f 833/1/1 834/2/1 835/3/1 836/4/1
f 837/1/1 838/2/1 839/3/1 840/4/1
f 841/1/1 842/2/1 843/3/1 844/4/1
f 845/1/1 846/2/1 847/3/1 848/4/1
f 849/1/1 850/2/1 851/3/1 852/4/1
f 853/1/1 854/2/1 855/3/1 856/4/1
f 857/1/1 858/2/1 859/3/1 860/4/1
f 861/1/1 862/2/1 863/3/1 864/4/1
f 865/1/1 866/2/1 867/3/1 868/4/1
f 869/1/1 870/2/1 871/3/1 872/4/1
f 873/1/1 874/2/1 875/3/1 876/4/1
f 877/1/1 878/2/1 879/3/1 880/4/1
f 881/1/1 882/2/1 883/3/1 884/4/1
f 885/1/1 886/2/1 887/3/1 888/4/1
f 889/1/1 890/2/1 891/3/1 892/4/1
f 893/1/1 894/2/1 895/3/1 896/4/1
f 897/1/1 898/2/1 899/3/1 900/4/1
f 901/1/1 902/2/1 903/3/1 904/4/1
f 905/1/1 906/2/1 907/3/1 908/4/1
f 909/1/1 910/2/1 911/3/1 912/4/1
f 913/1/1 914/2/1 915/3/1 916/4/1
f 917/1/1 918/2/1 919/3/1 920/4/1
f 921/1/1 922/2/1 923/3/1 924/4/1
f 925/1/1 926/2/1 927/3/1 928/4/1
f 929/1/1 930/2/1 931/3/1 932/4/1
f 933/1/1 934/2/1 935/3/1 936/4/1
f 937/1/1 938/2/1 939/3/1 940/4/1
f 941/1/1 942/2/1 943/3/1 944/4/1
f 945/1/1 946/2/1 947/3/1 948/4/1
f 949/1/1 950/2/1 951/3/1 952/4/1
f 953/1/1 954/2/1 955/3/1 956/4/1
f 957/1/1 958/2/1 959/3/1 960/4/1
f 961/1/1 962/2/1 963/3/1 964/4/1
f 965/1/1 966/2/1 967/3/1 968/4/1
f 969/1/1 970/2/1 971/3/1 972/4/1
f 973/1/1 974/2/1 975/3/1 976/4/1
f 977/1/1 978/2/1 979/3/1 980/4/1
f 981/1/1 982/2/1 983/3/1 984/4/1
f 985/1/1 986/2/1 987/3/1 988/4/1
f 989/1/1 990/2/1 991/3/1 992/4/1
f 993/1/1 994/2/1 995/3/1 996/4/1
f 997/1/1 998/2/1 999/3/1 1000/4/1
f 1001/1/1 1002/2/1 1003/3/1 1004/4/1
f 1005/1/1 1006/2/1 1007/3/1 1008/4/1
f 1009/1/1 1010/2/1 1011/3/1 1012/4/1
f 1013/1/1 1014/2/1 1015/3/1 1016/4/1
f 1017/1/1 1018/2/1 1019/3/1 1020/4/1
f 1021/1/1 1022/2/1 1023/3/1 1024/4/1
f 1025/1/1 1026/2/1 1027/3/1 1028/4/1
f 1029/1/1 1030/2/1 1031/3/1 1032/4/1
f 1033/1/1 1034/2/1 1035/3/1 1036/4/1
f 1037/1/1 1038/2/1 1039/3/1 1040/4/1
f 1041/1/1 1042/2/1 1043/3/1 1044/4/1
f 1045/1/1 1046/2/1 1047/3/1 1048/4/1
f 1049/1/1 1050/2/1 1051/3/1 1052/4/1
f 1053/1/1 1054/2/1 1055/3/1 1056/4/1
f 1057/1/1 1058/2/1 1059/3/1 1060/4/1
f 1061/1/1 1062/2/1 1063/3/1 1064/4/1
f 1065/1/1 1066/2/1 1067/3/1 1068/4/1
f 1069/1/1 1070/2/1 1071/3/1 1072/4/1
f 1073/1/1 1074/2/1 1075/3/1 1076/4/1
f 1077/1/1 1078/2/1 1079/3/1 1080/4/1
f 1081/1/1 1082/2/1 1083/3/1 1084/4/1
f 1085/1/1 1086/2/1 1087/3/1 1088/4/1
f 1089/1/1 1090/2/1 1091/3/1 1092/4/1
f 1093/1/1 1094/2/1 1095/3/1 1096/4/1
f 1097/1/1 1098/2/1 1099/3/1 1100/4/1
f 1101/1/1 1102/2/1 1103/3/1 1104/4/1
f 1105/1/1 1106/2/1 1107/3/1 1108/4/1
f 1109/1/1 1110/2/1 1111/3/1 1112/4/1
f 1113/1/1 1114/2/1 1115/3/1 1116/4/1
f 1117/1/1 1118/2/1 1119/3/1 1120/4/1
f 1121/1/1 1122/2/1 1123/3/1 1124/4/1
f 1125/1/1 1126/2/1 1127/3/1 1128/4/1
f 1129/1/1 1130/2/1 1131/3/1 1132/4/1
f 1133/1/1 1134/2/1 1135/3/1 1136/4/1
f 1137/1/1 1138/2/1 1139/3/1 1140/4/1
f 1141/1/1 1142/2/1 1143/3/1 1144/4/1
f 1145/1/1 1146/2/1 1147/3/1 1148/4/1
f 1149/1/1 1150/2/1 1151/3/1 1152/4/1
f 1153/1/1 1154/2/1 1155/3/1 1156/4/1
f 1157/1/1 1158/2/1 1159/3/1 1160/4/1
f 1161/1/1 1162/2/1 1163/3/1 1164/4/1
f 1165/1/1 1166/2/1 1167/3/1 1168/4/1
f 1169/1/1 1170/2/1 1171/3/1 1172/4/1
f 1173/1/1 1174/2/1 1175/3/1 1176/4/1
f 1177/1/1 1178/2/1 1179/3/1 1180/4/1
f 1181/1/1 1182/2/1 1183/3/1 1184/4/1
f 1185/1/1 1186/2/1 1187/3/1 1188/4/1
f 1189/1/1 1190/2/1 1191/3/1 1192/4/1
f 1193/1/1 1194/2/1 1195/3/1 1196/4/1
f 1197/1/1 1198/2/1 1199/3/1 1200/4/1
f 1201/1/1 1202/2/1 1203/3/1 1204/4/1
f 1205/1/1 1206/2/1 1207/3/1 1208/4/1
f 1209/1/1 1210/2/1 1211/3/1 1212/4/1
f 1213/1/1 1214/2/1 1215/3/1 1216/4/1
f 1217/1/1 1218/2/1 1219/3/1 1220/4/1
f 1221/1/1 1222/2/1 1223/3/1 1224/4/1
f 1225/1/1 1226/2/1 1227/3/1 1228/4/1
f 1229/1/1 1230/2/1 1231/3/1 1232/4/1
f 1233/1/1 1234/2/1 1235/3/1 1236/4/1
f 1237/1/1 1238/2/1 1239/3/1 1240/4/1
f 1241/1/1 1242/2/1 1243/3/1 1244/4/1
f 1245/1/1 1246/2/1 1247/3/1 1248/4/1
f 1249/1/1 1250/2/1 1251/3/1 1252/4/1
f 1253/1/1 1254/2/1 1255/3/1 1256/4/1
f 1257/1/1 1258/2/1 1259/3/1 1260/4/1
f 1261/1/1 1262/2/1 1263/3/1 1264/4/1
f 1265/1/1 1266/2/1 1267/3/1 1268/4/1
f 1269/1/1 1270/2/1 1271/3/1 1272/4/1
f 1273/1/1 1274/2/1 1275/3/1 1276/4/1
f 1277/1/1 1278/2/1 1279/3/1 1280/4/1
f 1281/1/1 1282/2/1 1283/3/1 1284/4/1
f 1285/1/1 1286/2/1 1287/3/1 1288/4/1
f 1289/1/1 1290/2/1 1291/3/1 1292/4/1
f 1293/1/1 1294/2/1 1295/3/1 1296/4/1
f 1297/1/1 1298/2/1 1299/3/1 1300/4/1
f 1301/1/1 1302/2/1 1303/3/1 1304/4/1
f 1305/1/1 1306/2/1 1307/3/1 1308/4/1
f 1309/1/1 1310/2/1 1311/3/1 1312/4/1
f 1313/1/1 1314/2/1 1315/3/1 1316/4/1
f 1317/1/1 1318/2/1 1319/3/1 1320/4/1
f 1321/1/1 1322/2/1 1323/3/1 1324/4/1
f 1325/1/1 1326/2/1 1327/3/1 1328/4/1
f 1329/1/1 1330/2/1 1331/3/1 1332/4/1
f 1333/1/1 1334/2/1 1335/3/1 1336/4/1
f 1337/1/1 1338/2/1 1339/3/1 1340/4/1
f 1341/1/1 1342/2/1 1343/3/1 1344/4/1
f 1345/1/1 1346/2/1 1347/3/1 1348/4/1
f 1349/1/1 1350/2/1 1351/3/1 1352/4/1
f 1353/1/1 1354/2/1 1355/3/1 1356/4/1
f 1357/1/1 1358/2/1 1359/3/1 1360/4/1
f 1361/1/1 1362/2/1 1363/3/1 1364/4/1
f 1365/1/1 1366/2/1 1367/3/1 1368/4/1
f 1369/1/1 1370/2/1 1371/3/1 1372/4/1
f 1373/1/1 1374/2/1 1375/3/1 1376/4/1
f 1377/1/1 1378/2/1 1379/3/1 1380/4/1
f 1381/1/1 1382/2/1 1383/3/1 1384/4/1
f 1385/1/1 1386/2/1 1387/3/1 1388/4/1
f 1389/1/1 1390/2/1 1391/3/1 1392/4/1
f 1393/1/1 1394/2/1 1395/3/1 1396/4/1
f 1397/1/1 1398/2/1 1399/3/1 1400/4/1
f 1401/1/1 1402/2/1 1403/3/1 1404/4/1
f 1405/1/1 1406/2/1 1407/3/1 1408/4/1
f 1409/1/1 1410/2/1 1411/3/1 1412/4/1
f 1413/1/1 1414/2/1 1415/3/1 1416/4/1
f 1417/1/1 1418/2/1 1419/3/1 1420/4/1
f 1421/1/1 1422/2/1 1423/3/1 1424/4/1
f 1425/1/1 1426/2/1 1427/3/1 1428/4/1
f 1429/1/1 1430/2/1 1431/3/1 1432/4/1
f 1433/1/1 1434/2/1 1435/3/1 1436/4/1
f 1437/1/1 1438/2/1 1439/3/1 1440/4/1
f 1441/1/1 1442/2/1 1443/3/1 1444/4/1
f 1445/1/1 1446/2/1 1447/3/1 1448/4/1
f 1449/1/1 1450/2/1 1451/3/1 1452/4/1
f 1453/1/1 1454/2/1 1455/3/1 1456/4/1
f 1457/1/1 1458/2/1 1459/3/1 1460/4/1
f 1461/1/1 1462/2/1 1463/3/1 1464/4/1
f 1465/1/1 1466/2/1 1467/3/1 1468/4/1
f 1469/1/1 1470/2/1 1471/3/1 1472/4/1
f 1473/1/1 1474/2/1 1475/3/1 1476/4/1
f 1477/1/1 1478/2/1 1479/3/1 1480/4/1
f 1481/1/1 1482/2/1 1483/3/1 1484/4/1
f 1485/1/1 1486/2/1 1487/3/1 1488/4/1
f 1489/1/1 1490/2/1 1491/3/1 1492/4/1
f 1493/1/1 1494/2/1 1495/3/1 1496/4/1
f 1497/1/1 1498/2/1 1499/3/1 1500/4/1
f 1501/1/1 1502/2/1 1503/3/1 1504/4/1
f 1505/1/1 1506/2/1 1507/3/1 1508/4/1
f 1509/1/1 1510/2/1 1511/3/1 1512/4/1
f 1513/1/1 1514/2/1 1515/3/1 1516/4/1
f 1517/1/1 1518/2/1 1519/3/1 1520/4/1
f 1521/1/1 1522/2/1 1523/3/1 1524/4/1
f 1525/1/1 1526/2/1 1527/3/1 1528/4/1
f 1529/1/1 1530/2/1 1531/3/1 1532/4/1
f 1533/1/1 1534/2/1 1535/3/1 1536/4/1
f 1537/1/1 1538/2/1 1539/3/1 1540/4/1
f 1541/1/1 1542/2/1 1543/3/1 1544/4/1
f 1545/1/1 1546/2/1 1547/3/1 1548/4/1
f 1549/1/1 1550/2/1 1551/3/1 1552/4/1
f 1553/1/1 1554/2/1 1555/3/1 1556/4/1
f 1557/1/1 1558/2/1 1559/3/1 1560/4/1
f 1561/1/1 1562/2/1 1563/3/1 1564/4/1
f 1565/1/1 1566/2/1 1567/3/1 1568/4/1
f 1569/1/1 1570/2/1 1571/3/1 1572/4/1
f 1573/1/1 1574/2/1 1575/3/1 1576/4/1
f 1577/1/1 1578/2/1 1579/3/1 1580/4/1
f 1581/1/1 1582/2/1 1583/3/1 1584/4/1
f 1585/1/1 1586/2/1 1587/3/1 1588/4/1
f 1589/1/1 1590/2/1 1591/3/1 1592/4/1
f 1593/1/1 1594/2/1 1595/3/1 1596/4/1
f 1597/1/1 1598/2/1 1599/3/1 1600/4/1
f 1601/1/1 1602/2/1 1603/3/1 1604/4/1
f 1605/1/1 1606/2/1 1607/3/1 1608/4/1
f 1609/1/1 1610/2/1 1611/3/1 1612/4/1
f 1613/1/1 1614/2/1 1615/3/1 1616/4/1
f 1617/1/1 1618/2/1 1619/3/1 1620/4/1
f 1621/1/1 1622/2/1 1623/3/1 1624/4/1
f 1625/1/1 1626/2/1 1627/3/1 1628/4/1
f 1629/1/1 1630/2/1 1631/3/1 1632/4/1
f 1633/1/1 1634/2/1 1635/3/1 1636/4/1
f 1637/1/1 1638/2/1 1639/3/1 1640/4/1
f 1641/1/1 1642/2/1 1643/3/1 1644/4/1
f 1645/1/1 1646/2/1 1647/3/1 1648/4/1
f 1649/1/1 1650/2/1 1651/3/1 1652/4/1
f 1653/1/1 1654/2/1 1655/3/1 1656/4/1
f 1657/1/1 1658/2/1 1659/3/1 1660/4/1
f 1661/1/1 1662/2/1 1663/3/1 1664/4/1
f 1665/1/1 1666/2/1 1667/3/1 1668/4/1
f 1669/1/1 1670/2/1 1671/3/1 1672/4/1
f 1673/1/1 1674/2/1 1675/3/1 1676/4/1
f 1677/1/1 1678/2/1 1679/3/1 1680/4/1
f 1681/1/1 1682/2/1 1683/3/1 1684/4/1
f 1685/1/1 1686/2/1 1687/3/1 1688/4/1
f 1689/1/1 1690/2/1 1691/3/1 1692/4/1
f 1693/1/1 1694/2/1 1695/3/1 1696/4/1
f 1697/1/1 1698/2/1 1699/3/1 1700/4/1
f 1701/1/1 1702/2/1 1703/3/1 1704/4/1
f 1705/1/1 1706/2/1 1707/3/1 1708/4/1
f 1709/1/1 1710/2/1 1711/3/1 1712/4/1
f 1713/1/1 1714/2/1 1715/3/1 1716/4/1
f 1717/1/1 1718/2/1 1719/3/1 1720/4/1
f 1721/1/1 1722/2/1 1723/3/1 1724/4/1
f 1725/1/1 1726/2/1 1727/3/1 1728/4/1
f 1729/1/1 1730/2/1 1731/3/1 1732/4/1
f 1733/1/1 1734/2/1 1735/3/1 1736/4/1
f 1737/1/1 1738/2/1 1739/3/1 1740/4/1
f 1741/1/1 1742/2/1 1743/3/1 1744/4/1
f 1745/1/1 1746/2/1 1747/3/1 1748/4/1
f 1749/1/1 1750/2/1 1751/3/1 1752/4/1
f 1753/1/1 1754/2/1 1755/3/1 1756/4/1
f 1757/1/1 1758/2/1 1759/3/1 1760/4/1
f 1761/1/1 1762/2/1 1763/3/1 1764/4/1
f 1765/1/1 1766/2/1 1767/3/1 1768/4/1
f 1769/1/1 1770/2/1 1771/3/1 1772/4/1
f 1773/1/1 1774/2/1 1775/3/1 1776/4/1
f 1777/1/1 1778/2/1 1779/3/1 1780/4/1
f 1781/1/1 1782/2/1 1783/3/1 1784/4/1
f 1785/1/1 1786/2/1 1787/3/1 1788/4/1
f 1789/1/1 1790/2/1 1791/3/1 1792/4/1
f 1793/1/1 1794/2/1 1795/3/1 1796/4/1
f 1797/1/1 1798/2/1 1799/3/1 1800/4/1
f 1801/1/1 1802/2/1 1803/3/1 1804/4/1
f 1805/1/1 1806/2/1 1807/3/1 1808/4/1
f 1809/1/1 1810/2/1 1811/3/1 1812/4/1
f 1813/1/1 1814/2/1 1815/3/1 1816/4/1
f 1817/1/1 1818/2/1 1819/3/1 1820/4/1
f 1821/1/1 1822/2/1 1823/3/1 1824/4/1
f 1825/1/1 1826/2/1 1827/3/1 1828/4/1
f 1829/1/1 1830/2/1 1831/3/1 1832/4/1
f 1833/1/1 1834/2/1 1835/3/1 1836/4/1
f 1837/1/1 1838/2/1 1839/3/1 1840/4/1
f 1841/1/1 1842/2/1 1843/3/1 1844/4/1
f 1845/1/1 1846/2/1 1847/3/1 1848/4/1
f 1849/1/1 1850/2/1 1851/3/1 1852/4/1
f 1853/1/1 1854/2/1 1855/3/1 1856/4/1
f 1857/1/1 1858/2/1 1859/3/1 1860/4/1
f 1861/1/1 1862/2/1 1863/3/1 1864/4/1
f 1865/1/1 1866/2/1 1867/3/1 1868/4/1
f 1869/1/1 1870/2/1 1871/3/1 1872/4/1
f 1873/1/1 1874/2/1 1875/3/1 1876/4/1
f 1877/1/1 1878/2/1 1879/3/1 1880/4/1
f 1881/1/1 1882/2/1 1883/3/1 1884/4/1
f 1885/1/1 1886/2/1 1887/3/1 1888/4/1
f 1889/1/1 1890/2/1 1891/3/1 1892/4/1
f 1893/1/1 1894/2/1 1895/3/1 1896/4/1
f 1897/1/1 1898/2/1 1899/3/1 1900/4/1
f 1901/1/1 1902/2/1 1903/3/1 1904/4/1
f 1905/1/1 1906/2/1 1907/3/1 1908/4/1
f 1909/1/1 1910/2/1 1911/3/1 1912/4/1
f 1913/1/1 1914/2/1 1915/3/1 1916/4/1
f 1917/1/1 1918/2/1 1919/3/1 1920/4/1
f 1921/1/1 1922/2/1 1923/3/1 1924/4/1
f 1925/1/1 1926/2/1 1927/3/1 1928/4/1
f 1929/1/1 1930/2/1 1931/3/1 1932/4/1
f 1933/1/1 1934/2/1 1935/3/1 1936/4/1
f 1937/1/1 1938/2/1 1939/3/1 1940/4/1
f 1941/1/1 1942/2/1 1943/3/1 1944/4/1
f 1945/1/1 1946/2/1 1947/3/1 1948/4/1
f 1949/1/1 1950/2/1 1951/3/1 1952/4/1
f 1953/1/1 1954/2/1 1955/3/1 1956/4/1
f 1957/1/1 1958/2/1 1959/3/1 1960/4/1
f 1961/1/1 1962/2/1 1963/3/1 1964/4/1
f 1965/1/1 1966/2/1 1967/3/1 1968/4/1
f 1969/1/1 1970/2/1 1971/3/1 1972/4/1
f 1973/1/1 1974/2/1 1975/3/1 1976/4/1
f 1977/1/1 1978/2/1 1979/3/1 1980/4/1
f 1981/1/1 1982/2/1 1983/3/1 1984/4/1
f 1985/1/1 1986/2/1 1987/3/1 1988/4/1
f 1989/1/1 1990/2/1 1991/3/1 1992/4/1
f 1993/1/1 1994/2/1 1995/3/1 1996/4/1
f 1997/1/1 1998/2/1 1999/3/1 2000/4/1
f 2001/1/1 2002/2/1 2003/3/1 2004/4/1
f 2005/1/1 2006/2/1 2007/3/1 2008/4/1
f 2009/1/1 2010/2/1 2011/3/1 2012/4/1
f 2013/1/1 2014/2/1 2015/3/1 2016/4/1
f 2017/1/1 2018/2/1 2019/3/1 2020/4/1
f 2021/1/1 2022/2/1 2023/3/1 2024/4/1
f 2025/1/1 2026/2/1 2027/3/1 2028/4/1
f 2029/1/1 2030/2/1 2031/3/1 2032/4/1
f 2033/1/1 2034/2/1 2035/3/1 2036/4/1
f 2037/1/1 2038/2/1 2039/3/1 2040/4/1
f 2041/1/1 2042/2/1 2043/3/1 2044/4/1
f 2045/1/1 2046/2/1 2047/3/1 2048/4/1
f 2049/1/1 2050/2/1 2051/3/1 2052/4/1
f 2053/1/1 2054/2/1 2055/3/1 2056/4/1
f 2057/1/1 2058/2/1 2059/3/1 2060/4/1
f 2061/1/1 2062/2/1 2063/3/1 2064/4/1
f 2065/1/1 2066/2/1 2067/3/1 2068/4/1
f 2069/1/1 2070/2/1 2071/3/1 2072/4/1
f 2073/1/1 2074/2/1 2075/3/1 2076/4/1
f 2077/1/1 2078/2/1 2079/3/1 2080/4/1
f 2081/1/1 2082/2/1 2083/3/1 2084/4/1
f 2085/1/1 2086/2/1 2087/3/1 2088/4/1
f 2089/1/1 2090/2/1 2091/3/1 2092/4/1
f 2093/1/1 2094/2/1 2095/3/1 2096/4/1
f 2097/1/1 2098/2/1 2099/3/1 2100/4/1
f 2101/1/1 2102/2/1 2103/3/1 2104/4/1
f 2105/1/1 2106/2/1 2107/3/1 2108/4/1
f 2109/1/1 2110/2/1 2111/3/1 2112/4/1
f 2113/1/1 2114/2/1 2115/3/1 2116/4/1
f 2117/1/1 2118/2/1 2119/3/1 2120/4/1
f 2121/1/1 2122/2/1 2123/3/1 2124/4/1
f 2125/1/1 2126/2/1 2127/3/1 2128/4/1
f 2129/1/1 2130/2/1 2131/3/1 2132/4/1
f 2133/1/1 2134/2/1 2135/3/1 2136/4/1
f 2137/1/1 2138/2/1 2139/3/1 2140/4/1
f 2141/1/1 2142/2/1 2143/3/1 2144/4/1
f 2145/1/1 2146/2/1 2147/3/1 2148/4/1
f 2149/1/1 2150/2/1 2151/3/1 2152/4/1
f 2153/1/1 2154/2/1 2155/3/1 2156/4/1
f 2157/1/1 2158/2/1 2159/3/1 2160/4/1
f 2161/1/1 2162/2/1 2163/3/1 2164/4/1
f 2165/1/1 2166/2/1 2167/3/1 2168/4/1
f 2169/1/1 2170/2/1 2171/3/1 2172/4/1
f 2173/1/1 2174/2/1 2175/3/1 2176/4/1
f 2177/1/1 2178/2/1 2179/3/1 2180/4/1
f 2181/1/1 2182/2/1 2183/3/1 2184/4/1
f 2185/1/1 2186/2/1 2187/3/1 2188/4/1
f 2189/1/1 2190/2/1 2191/3/1 2192/4/1
f 2193/1/1 2194/2/1 2195/3/1 2196/4/1
f 2197/1/1 2198/2/1 2199/3/1 2200/4/1
f 2201/1/1 2202/2/1 2203/3/1 2204/4/1
f 2205/1/1 2206/2/1 2207/3/1 2208/4/1
f 2209/1/1 2210/2/1 2211/3/1 2212/4/1
f 2213/1/1 2214/2/1 2215/3/1 2216/4/1
f 2217/1/1 2218/2/1 2219/3/1 2220/4/1
f 2221/1/1 2222/2/1 2223/3/1 2224/4/1
f 2225/1/1 2226/2/1 2227/3/1 2228/4/1
f 2229/1/1 2230/2/1 2231/3/1 2232/4/1
f 2233/1/1 2234/2/1 2235/3/1 2236/4/1
f 2237/1/1 2238/2/1 2239/3/1 2240/4/1
f 2241/1/1 2242/2/1 2243/3/1 2244/4/1
f 2245/1/1 2246/2/1 2247/3/1 2248/4/1
f 2249/1/1 2250/2/1 2251/3/1 2252/4/1
f 2253/1/1 2254/2/1 2255/3/1 2256/4/1
f 2257/1/1 2258/2/1 2259/3/1 2260/4/1
f 2261/1/1 2262/2/1 2263/3/1 2264/4/1
f 2265/1/1 2266/2/1 2267/3/1 2268/4/1
f 2269/1/1 2270/2/1 2271/3/1 2272/4/1
f 2273/1/1 2274/2/1 2275/3/1 2276/4/1
f 2277/1/1 2278/2/1 2279/3/1 2280/4/1
f 2281/1/1 2282/2/1 2283/3/1 2284/4/1
f 2285/1/1 2286/2/1 2287/3/1 2288/4/1
f 2289/1/1 2290/2/1 2291/3/1 2292/4/1
f 2293/1/1 2294/2/1 2295/3/1 2296/4/1
f 2297/1/1 2298/2/1 2299/3/1 2300/4/1
f 2301/1/1 2302/2/1 2303/3/1 2304/4/1
f 2305/1/1 2306/2/1 2307/3/1 2308/4/1
f 2309/1/1 2310/2/1 2311/3/1 2312/4/1
f 2313/1/1 2314/2/1 2315/3/1 2316/4/1
f 2317/1/1 2318/2/1 2319/3/1 2320/4/1
f 2321/1/1 2322/2/1 2323/3/1 2324/4/1
f 2325/1/1 2326/2/1 2327/3/1 2328/4/1
f 2329/1/1 2330/2/1 2331/3/1 2332/4/1
f 2333/1/1 2334/2/1 2335/3/1 2336/4/1
f 2337/1/1 2338/2/1 2339/3/1 2340/4/1
f 2341/1/1 2342/2/1 2343/3/1 2344/4/1
f 2345/1/1 2346/2/1 2347/3/1 2348/4/1
f 2349/1/1 2350/2/1 2351/3/1 2352/4/1
f 2353/1/1 2354/2/1 2355/3/1 2356/4/1
f 2357/1/1 2358/2/1 2359/3/1 2360/4/1
f 2361/1/1 2362/2/1 2363/3/1 2364/4/1
f 2365/1/1 2366/2/1 2367/3/1 2368/4/1
f 2369/1/1 2370/2/1 2371/3/1 2372/4/1
f 2373/1/1 2374/2/1 2375/3/1 2376/4/1
f 2377/1/1 2378/2/1 2379/3/1 2380/4/1
f 2381/1/1 2382/2/1 2383/3/1 2384/4/1
f 2385/1/1 2386/2/1 2387/3/1 2388/4/1
f 2389/1/1 2390/2/1 2391/3/1 2392/4/1
f 2393/1/1 2394/2/1 2395/3/1 2396/4/1
f 2397/1/1 2398/2/1 2399/3/1 2400/4/1
f 2401/1/1 2402/2/1 2403/3/1 2404/4/1
f 2405/1/1 2406/2/1 2407/3/1 2408/4/1
f 2409/1/1 2410/2/1 2411/3/1 2412/4/1
f 2413/1/1 2414/2/1 2415/3/1 2416/4/1
f 2417/1/1 2418/2/1 2419/3/1 2420/4/1
f 2421/1/1 2422/2/1 2423/3/1 2424/4/1
f 2425/1/1 2426/2/1 2427/3/1 2428/4/1
f 2429/1/1 2430/2/1 2431/3/1 2432/4/1
f 2433/1/1 2434/2/1 2435/3/1 2436/4/1
f 2437/1/1 2438/2/1 2439/3/1 2440/4/1
f 2441/1/1 2442/2/1 2443/3/1 2444/4/1
f 2445/1/1 2446/2/1 2447/3/1 2448/4/1
f 2449/1/1 2450/2/1 2451/3/1 2452/4/1
f 2453/1/1 2454/2/1 2455/3/1 2456/4/1
f 2457/1/1 2458/2/1 2459/3/1 2460/4/1
f 2461/1/1 2462/2/1 2463/3/1 2464/4/1
f 2465/1/1 2466/2/1 2467/3/1 2468/4/1
f 2469/1/1 2470/2/1 2471/3/1 2472/4/1
f 2473/1/1 2474/2/1 2475/3/1 2476/4/1
f 2477/1/1 2478/2/1 2479/3/1 2480/4/1
f 2481/1/1 2482/2/1 2483/3/1 2484/4/1
f 2485/1/1 2486/2/1 2487/3/1 2488/4/1
f 2489/1/1 2490/2/1 2491/3/1 2492/4/1
f 2493/1/1 2494/2/1 2495/3/1 2496/4/1
f 2497/1/1 2498/2/1 2499/3/1 2500/4/1
f 2501/1/1 2502/2/1 2503/3/1 2504/4/1
f 2505/1/1 2506/2/1 2507/3/1 2508/4/1
f 2509/1/1 2510/2/1 2511/3/1 2512/4/1
f 2513/1/1 2514/2/1 2515/3/1 2516/4/1
f 2517/1/1 2518/2/1 2519/3/1 2520/4/1
f 2521/1/1 2522/2/1 2523/3/1 2524/4/1
f 2525/1/1 2526/2/1 2527/3/1 2528/4/1
f 2529/1/1 2530/2/1 2531/3/1 2532/4/1
f 2533/1/1 2534/2/1 2535/3/1 2536/4/1

